%!PS-Adobe-3.0 EPSF-3.0
%%Creator: (MATLAB, The Mathworks, Inc. Version 9.0.0.341360 \(R2016a\). Operating System: Windows 7)
%%Title: (C:/Users/kamyar.makinejad/Dropbox/TUM-CREATE/Paper with RP3/IEEEtran/plots/25degrees.eps)
%%CreationDate: 2016-03-30T15:47:13
%%Pages: (atend)
%%BoundingBox: 0 0 576 432
%%LanguageLevel: 3
%%EndComments
%%BeginProlog
%%BeginResource: procset (Apache XML Graphics Std ProcSet) 1.2 0
%%Version: 1.2 0
%%Copyright: (Copyright 2001-2003,2010 The Apache Software Foundation. License terms: http://www.apache.org/licenses/LICENSE-2.0)
/bd{bind def}bind def
/ld{load def}bd
/GR/grestore ld
/M/moveto ld
/LJ/setlinejoin ld
/C/curveto ld
/f/fill ld
/LW/setlinewidth ld
/GC/setgray ld
/t/show ld
/N/newpath ld
/CT/concat ld
/cp/closepath ld
/S/stroke ld
/L/lineto ld
/CC/setcmykcolor ld
/A/ashow ld
/GS/gsave ld
/RC/setrgbcolor ld
/RM/rmoveto ld
/ML/setmiterlimit ld
/re {4 2 roll M
1 index 0 rlineto
0 exch rlineto
neg 0 rlineto
cp } bd
/_ctm matrix def
/_tm matrix def
/BT { _ctm currentmatrix pop matrix _tm copy pop 0 0 moveto } bd
/ET { _ctm setmatrix } bd
/iTm { _ctm setmatrix _tm concat } bd
/Tm { _tm astore pop iTm 0 0 moveto } bd
/ux 0.0 def
/uy 0.0 def
/F {
  /Tp exch def
  /Tf exch def
  Tf findfont Tp scalefont setfont
  /cf Tf def  /cs Tp def
} bd
/ULS {currentpoint /uy exch def /ux exch def} bd
/ULE {
  /Tcx currentpoint pop def
  gsave
  newpath
  cf findfont cs scalefont dup
  /FontMatrix get 0 get /Ts exch def /FontInfo get dup
  /UnderlinePosition get Ts mul /To exch def
  /UnderlineThickness get Ts mul /Tt exch def
  ux uy To add moveto  Tcx uy To add lineto
  Tt setlinewidth stroke
  grestore
} bd
/OLE {
  /Tcx currentpoint pop def
  gsave
  newpath
  cf findfont cs scalefont dup
  /FontMatrix get 0 get /Ts exch def /FontInfo get dup
  /UnderlinePosition get Ts mul /To exch def
  /UnderlineThickness get Ts mul /Tt exch def
  ux uy To add cs add moveto Tcx uy To add cs add lineto
  Tt setlinewidth stroke
  grestore
} bd
/SOE {
  /Tcx currentpoint pop def
  gsave
  newpath
  cf findfont cs scalefont dup
  /FontMatrix get 0 get /Ts exch def /FontInfo get dup
  /UnderlinePosition get Ts mul /To exch def
  /UnderlineThickness get Ts mul /Tt exch def
  ux uy To add cs 10 mul 26 idiv add moveto Tcx uy To add cs 10 mul 26 idiv add lineto
  Tt setlinewidth stroke
  grestore
} bd
/QT {
/Y22 exch store
/X22 exch store
/Y21 exch store
/X21 exch store
currentpoint
/Y21 load 2 mul add 3 div exch
/X21 load 2 mul add 3 div exch
/X21 load 2 mul /X22 load add 3 div
/Y21 load 2 mul /Y22 load add 3 div
/X22 load /Y22 load curveto
} bd
/SSPD {
dup length /d exch dict def
{
/v exch def
/k exch def
currentpagedevice k known {
/cpdv currentpagedevice k get def
v cpdv ne {
/upd false def
/nullv v type /nulltype eq def
/nullcpdv cpdv type /nulltype eq def
nullv nullcpdv or
{
/upd true def
} {
/sametype v type cpdv type eq def
sametype {
v type /arraytype eq {
/vlen v length def
/cpdvlen cpdv length def
vlen cpdvlen eq {
0 1 vlen 1 sub {
/i exch def
/obj v i get def
/cpdobj cpdv i get def
obj cpdobj ne {
/upd true def
exit
} if
} for
} {
/upd true def
} ifelse
} {
v type /dicttype eq {
v {
/dv exch def
/dk exch def
/cpddv cpdv dk get def
dv cpddv ne {
/upd true def
exit
} if
} forall
} {
/upd true def
} ifelse
} ifelse
} if
} ifelse
upd true eq {
d k v put
} if
} if
} if
} forall
d length 0 gt {
d setpagedevice
} if
} bd
%%EndResource
%%BeginResource: procset (Apache XML Graphics EPS ProcSet) 1.0 0
%%Version: 1.0 0
%%Copyright: (Copyright 2002-2003 The Apache Software Foundation. License terms: http://www.apache.org/licenses/LICENSE-2.0)
/BeginEPSF { %def
/b4_Inc_state save def         % Save state for cleanup
/dict_count countdictstack def % Count objects on dict stack
/op_count count 1 sub def      % Count objects on operand stack
userdict begin                 % Push userdict on dict stack
/showpage { } def              % Redefine showpage, { } = null proc
0 setgray 0 setlinecap         % Prepare graphics state
1 setlinewidth 0 setlinejoin
10 setmiterlimit [ ] 0 setdash newpath
/languagelevel where           % If level not equal to 1 then
{pop languagelevel             % set strokeadjust and
1 ne                           % overprint to their defaults.
{false setstrokeadjust false setoverprint
} if
} if
} bd
/EndEPSF { %def
count op_count sub {pop} repeat            % Clean up stacks
countdictstack dict_count sub {end} repeat
b4_Inc_state restore
} bd
%%EndResource
%FOPBeginFontDict
%%IncludeResource: font Courier-Bold
%%IncludeResource: font Helvetica
%%IncludeResource: font Courier-BoldOblique
%%IncludeResource: font Courier-Oblique
%%IncludeResource: font Times-Roman
%%IncludeResource: font Helvetica-BoldOblique
%%IncludeResource: font Helvetica-Bold
%%IncludeResource: font Helvetica-Oblique
%%IncludeResource: font Times-BoldItalic
%%IncludeResource: font Courier
%%IncludeResource: font Times-Italic
%%IncludeResource: font Times-Bold
%%IncludeResource: font Symbol
%%IncludeResource: font ZapfDingbats
%FOPEndFontDict
%%BeginResource: encoding WinAnsiEncoding
/WinAnsiEncoding [
/.notdef /.notdef /.notdef /.notdef /.notdef
/.notdef /.notdef /.notdef /.notdef /.notdef
/.notdef /.notdef /.notdef /.notdef /.notdef
/.notdef /.notdef /.notdef /.notdef /.notdef
/.notdef /.notdef /.notdef /.notdef /.notdef
/.notdef /.notdef /.notdef /.notdef /.notdef
/.notdef /.notdef /space /exclam /quotedbl
/numbersign /dollar /percent /ampersand /quotesingle
/parenleft /parenright /asterisk /plus /comma
/hyphen /period /slash /zero /one
/two /three /four /five /six
/seven /eight /nine /colon /semicolon
/less /equal /greater /question /at
/A /B /C /D /E
/F /G /H /I /J
/K /L /M /N /O
/P /Q /R /S /T
/U /V /W /X /Y
/Z /bracketleft /backslash /bracketright /asciicircum
/underscore /quoteleft /a /b /c
/d /e /f /g /h
/i /j /k /l /m
/n /o /p /q /r
/s /t /u /v /w
/x /y /z /braceleft /bar
/braceright /asciitilde /bullet /Euro /bullet
/quotesinglbase /florin /quotedblbase /ellipsis /dagger
/daggerdbl /circumflex /perthousand /Scaron /guilsinglleft
/OE /bullet /Zcaron /bullet /bullet
/quoteleft /quoteright /quotedblleft /quotedblright /bullet
/endash /emdash /asciitilde /trademark /scaron
/guilsinglright /oe /bullet /zcaron /Ydieresis
/space /exclamdown /cent /sterling /currency
/yen /brokenbar /section /dieresis /copyright
/ordfeminine /guillemotleft /logicalnot /sfthyphen /registered
/macron /degree /plusminus /twosuperior /threesuperior
/acute /mu /paragraph /middot /cedilla
/onesuperior /ordmasculine /guillemotright /onequarter /onehalf
/threequarters /questiondown /Agrave /Aacute /Acircumflex
/Atilde /Adieresis /Aring /AE /Ccedilla
/Egrave /Eacute /Ecircumflex /Edieresis /Igrave
/Iacute /Icircumflex /Idieresis /Eth /Ntilde
/Ograve /Oacute /Ocircumflex /Otilde /Odieresis
/multiply /Oslash /Ugrave /Uacute /Ucircumflex
/Udieresis /Yacute /Thorn /germandbls /agrave
/aacute /acircumflex /atilde /adieresis /aring
/ae /ccedilla /egrave /eacute /ecircumflex
/edieresis /igrave /iacute /icircumflex /idieresis
/eth /ntilde /ograve /oacute /ocircumflex
/otilde /odieresis /divide /oslash /ugrave
/uacute /ucircumflex /udieresis /yacute /thorn
/ydieresis
] def
%%EndResource
%FOPBeginFontReencode
/Courier-Bold findfont
dup length dict begin
  {1 index /FID ne {def} {pop pop} ifelse} forall
  /Encoding WinAnsiEncoding def
  currentdict
end
/Courier-Bold exch definefont pop
/Helvetica findfont
dup length dict begin
  {1 index /FID ne {def} {pop pop} ifelse} forall
  /Encoding WinAnsiEncoding def
  currentdict
end
/Helvetica exch definefont pop
/Courier-BoldOblique findfont
dup length dict begin
  {1 index /FID ne {def} {pop pop} ifelse} forall
  /Encoding WinAnsiEncoding def
  currentdict
end
/Courier-BoldOblique exch definefont pop
/Courier-Oblique findfont
dup length dict begin
  {1 index /FID ne {def} {pop pop} ifelse} forall
  /Encoding WinAnsiEncoding def
  currentdict
end
/Courier-Oblique exch definefont pop
/Times-Roman findfont
dup length dict begin
  {1 index /FID ne {def} {pop pop} ifelse} forall
  /Encoding WinAnsiEncoding def
  currentdict
end
/Times-Roman exch definefont pop
/Helvetica-BoldOblique findfont
dup length dict begin
  {1 index /FID ne {def} {pop pop} ifelse} forall
  /Encoding WinAnsiEncoding def
  currentdict
end
/Helvetica-BoldOblique exch definefont pop
/Helvetica-Bold findfont
dup length dict begin
  {1 index /FID ne {def} {pop pop} ifelse} forall
  /Encoding WinAnsiEncoding def
  currentdict
end
/Helvetica-Bold exch definefont pop
/Helvetica-Oblique findfont
dup length dict begin
  {1 index /FID ne {def} {pop pop} ifelse} forall
  /Encoding WinAnsiEncoding def
  currentdict
end
/Helvetica-Oblique exch definefont pop
/Times-BoldItalic findfont
dup length dict begin
  {1 index /FID ne {def} {pop pop} ifelse} forall
  /Encoding WinAnsiEncoding def
  currentdict
end
/Times-BoldItalic exch definefont pop
/Courier findfont
dup length dict begin
  {1 index /FID ne {def} {pop pop} ifelse} forall
  /Encoding WinAnsiEncoding def
  currentdict
end
/Courier exch definefont pop
/Times-Italic findfont
dup length dict begin
  {1 index /FID ne {def} {pop pop} ifelse} forall
  /Encoding WinAnsiEncoding def
  currentdict
end
/Times-Italic exch definefont pop
/Times-Bold findfont
dup length dict begin
  {1 index /FID ne {def} {pop pop} ifelse} forall
  /Encoding WinAnsiEncoding def
  currentdict
end
/Times-Bold exch definefont pop
%FOPEndFontReencode
%%EndProlog
%%Page: 1 1
%%PageBoundingBox: 0 0 576 432
%%BeginPageSetup
[1 0 0 -1 0 432] CT
%%EndPageSetup
GS
[0.75 0 0 0.75 0 0] CT
1 GC
N
0 0 768 576 re
f
GR
GS
[0.75 0 0 0.75 0 0] CT
1 GC
N
0 0 768 576 re
f
GR
GS
[0.75 0 0 0.75 0 0] CT
1 GC
N
65 236 M
343 236 L
343 31 L
65 31 L
cp
f
GR
GS
[0.75 0 0 0.75 0 0] CT
0.873 GC
1 LJ
0.667 LW
N
65 236 M
65 31 L
S
GR
GS
[0.75 0 0 0.75 0 0] CT
0.873 GC
1 LJ
0.667 LW
N
120.6 236 M
120.6 31 L
S
GR
GS
[0.75 0 0 0.75 0 0] CT
0.873 GC
1 LJ
0.667 LW
N
176.2 236 M
176.2 31 L
S
GR
GS
[0.75 0 0 0.75 0 0] CT
0.873 GC
1 LJ
0.667 LW
N
231.8 236 M
231.8 31 L
S
GR
GS
[0.75 0 0 0.75 0 0] CT
0.873 GC
1 LJ
0.667 LW
N
287.4 236 M
287.4 31 L
S
GR
GS
[0.75 0 0 0.75 0 0] CT
0.873 GC
1 LJ
0.667 LW
N
343 236 M
343 31 L
S
GR
GS
[0.75 0 0 0.75 0 0] CT
0.873 GC
1 LJ
0.667 LW
N
343 236 M
65 236 L
S
GR
GS
[0.75 0 0 0.75 0 0] CT
0.873 GC
1 LJ
0.667 LW
N
343 195 M
65 195 L
S
GR
GS
[0.75 0 0 0.75 0 0] CT
0.873 GC
1 LJ
0.667 LW
N
343 154 M
65 154 L
S
GR
GS
[0.75 0 0 0.75 0 0] CT
0.873 GC
1 LJ
0.667 LW
N
343 113 M
65 113 L
S
GR
GS
[0.75 0 0 0.75 0 0] CT
0.873 GC
1 LJ
0.667 LW
N
343 72 M
65 72 L
S
GR
GS
[0.75 0 0 0.75 0 0] CT
0.873 GC
1 LJ
0.667 LW
N
343 31 M
65 31 L
S
GR
GS
[0.75 0 0 0.75 0 0] CT
0.149 GC
1 LJ
0.667 LW
N
65 236 M
343 236 L
S
GR
GS
[0.75 0 0 0.75 0 0] CT
0.149 GC
1 LJ
0.667 LW
N
65 31 M
343 31 L
S
GR
GS
[0.75 0 0 0.75 0 0] CT
0.149 GC
2 setlinecap
1 LJ
0.667 LW
N
65 236 M
65 233.22 L
S
GR
GS
[0.75 0 0 0.75 0 0] CT
0.149 GC
2 setlinecap
1 LJ
0.667 LW
N
120.6 236 M
120.6 233.22 L
S
GR
GS
[0.75 0 0 0.75 0 0] CT
0.149 GC
2 setlinecap
1 LJ
0.667 LW
N
176.2 236 M
176.2 233.22 L
S
GR
GS
[0.75 0 0 0.75 0 0] CT
0.149 GC
2 setlinecap
1 LJ
0.667 LW
N
231.8 236 M
231.8 233.22 L
S
GR
GS
[0.75 0 0 0.75 0 0] CT
0.149 GC
2 setlinecap
1 LJ
0.667 LW
N
287.4 236 M
287.4 233.22 L
S
GR
GS
[0.75 0 0 0.75 0 0] CT
0.149 GC
2 setlinecap
1 LJ
0.667 LW
N
343 236 M
343 233.22 L
S
GR
GS
[0.75 0 0 0.75 0 0] CT
0.149 GC
2 setlinecap
1 LJ
0.667 LW
N
65 31 M
65 33.78 L
S
GR
GS
[0.75 0 0 0.75 0 0] CT
0.149 GC
2 setlinecap
1 LJ
0.667 LW
N
120.6 31 M
120.6 33.78 L
S
GR
GS
[0.75 0 0 0.75 0 0] CT
0.149 GC
2 setlinecap
1 LJ
0.667 LW
N
176.2 31 M
176.2 33.78 L
S
GR
GS
[0.75 0 0 0.75 0 0] CT
0.149 GC
2 setlinecap
1 LJ
0.667 LW
N
231.8 31 M
231.8 33.78 L
S
GR
GS
[0.75 0 0 0.75 0 0] CT
0.149 GC
2 setlinecap
1 LJ
0.667 LW
N
287.4 31 M
287.4 33.78 L
S
GR
GS
[0.75 0 0 0.75 0 0] CT
0.149 GC
2 setlinecap
1 LJ
0.667 LW
N
343 31 M
343 33.78 L
S
GR
GS
[0.75 0 0 0.75 48.75 180.59999] CT
0.149 GC
/Helvetica 10.667 F
GS
[1 0 0 1 0 0] CT
-3.5 12 moveto 
1 -1 scale
(0) t 
GR
GR
GS
[0.75 0 0 0.75 90.45 180.59999] CT
0.149 GC
/Helvetica 10.667 F
GS
[1 0 0 1 0 0] CT
-9.5 12 moveto 
1 -1 scale
(500) t 
GR
GR
GS
[0.75 0 0 0.75 132.15 180.59999] CT
0.149 GC
/Helvetica 10.667 F
GS
[1 0 0 1 0 0] CT
-12.5 12 moveto 
1 -1 scale
(1000) t 
GR
GR
GS
[0.75 0 0 0.75 173.85 180.59999] CT
0.149 GC
/Helvetica 10.667 F
GS
[1 0 0 1 0 0] CT
-12.5 12 moveto 
1 -1 scale
(1500) t 
GR
GR
GS
[0.75 0 0 0.75 215.55 180.59999] CT
0.149 GC
/Helvetica 10.667 F
GS
[1 0 0 1 0 0] CT
-12.5 12 moveto 
1 -1 scale
(2000) t 
GR
GR
GS
[0.75 0 0 0.75 257.25 180.59999] CT
0.149 GC
/Helvetica 10.667 F
GS
[1 0 0 1 0 0] CT
-12.5 12 moveto 
1 -1 scale
(2500) t 
GR
GR
GS
[0.75 0 0 0.75 153.0001 192.84998] CT
0.149 GC
/Helvetica 10.667 F
GS
[1 0 0 1 0 0] CT
-17 12 moveto 
1 -1 scale
(Cycles) t 
GR
GR
GS
[0.75 0 0 0.75 0 0] CT
0.149 GC
1 LJ
0.667 LW
N
65 236 M
65 31 L
S
GR
GS
[0.75 0 0 0.75 0 0] CT
0.149 GC
1 LJ
0.667 LW
N
343 236 M
343 31 L
S
GR
GS
[0.75 0 0 0.75 0 0] CT
0.149 GC
2 setlinecap
1 LJ
0.667 LW
N
65 236 M
67.78 236 L
S
GR
GS
[0.75 0 0 0.75 0 0] CT
0.149 GC
2 setlinecap
1 LJ
0.667 LW
N
65 195 M
67.78 195 L
S
GR
GS
[0.75 0 0 0.75 0 0] CT
0.149 GC
2 setlinecap
1 LJ
0.667 LW
N
65 154 M
67.78 154 L
S
GR
GS
[0.75 0 0 0.75 0 0] CT
0.149 GC
2 setlinecap
1 LJ
0.667 LW
N
65 113 M
67.78 113 L
S
GR
GS
[0.75 0 0 0.75 0 0] CT
0.149 GC
2 setlinecap
1 LJ
0.667 LW
N
65 72 M
67.78 72 L
S
GR
GS
[0.75 0 0 0.75 0 0] CT
0.149 GC
2 setlinecap
1 LJ
0.667 LW
N
65 31 M
67.78 31 L
S
GR
GS
[0.75 0 0 0.75 0 0] CT
0.149 GC
2 setlinecap
1 LJ
0.667 LW
N
343 236 M
340.22 236 L
S
GR
GS
[0.75 0 0 0.75 0 0] CT
0.149 GC
2 setlinecap
1 LJ
0.667 LW
N
343 195 M
340.22 195 L
S
GR
GS
[0.75 0 0 0.75 0 0] CT
0.149 GC
2 setlinecap
1 LJ
0.667 LW
N
343 154 M
340.22 154 L
S
GR
GS
[0.75 0 0 0.75 0 0] CT
0.149 GC
2 setlinecap
1 LJ
0.667 LW
N
343 113 M
340.22 113 L
S
GR
GS
[0.75 0 0 0.75 0 0] CT
0.149 GC
2 setlinecap
1 LJ
0.667 LW
N
343 72 M
340.22 72 L
S
GR
GS
[0.75 0 0 0.75 0 0] CT
0.149 GC
2 setlinecap
1 LJ
0.667 LW
N
343 31 M
340.22 31 L
S
GR
GS
[0.75 0 0 0.75 45.15 176.99999] CT
0.149 GC
/Helvetica 10.667 F
GS
[1 0 0 1 0 0] CT
-16 4.5 moveto 
1 -1 scale
(0.8) t 
GR
GR
GS
[0.75 0 0 0.75 45.15 146.24999] CT
0.149 GC
/Helvetica 10.667 F
GS
[1 0 0 1 0 0] CT
-22 4.5 moveto 
1 -1 scale
(0.85) t 
GR
GR
GS
[0.75 0 0 0.75 45.15 115.50001] CT
0.149 GC
/Helvetica 10.667 F
GS
[1 0 0 1 0 0] CT
-16 4.5 moveto 
1 -1 scale
(0.9) t 
GR
GR
GS
[0.75 0 0 0.75 45.15 84.75001] CT
0.149 GC
/Helvetica 10.667 F
GS
[1 0 0 1 0 0] CT
-22 4.5 moveto 
1 -1 scale
(0.95) t 
GR
GR
GS
[0.75 0 0 0.75 45.15 54] CT
0.149 GC
/Helvetica 10.667 F
GS
[1 0 0 1 0 0] CT
-7 4.5 moveto 
1 -1 scale
(1) t 
GR
GR
GS
[0.75 0 0 0.75 45.15 23.25003] CT
0.149 GC
/Helvetica 10.667 F
GS
[1 0 0 1 0 0] CT
-22 4.5 moveto 
1 -1 scale
(1.05) t 
GR
GR
GS
[0 -0.75 0.75 0 25.65 100.12495] CT
0.149 GC
N
-89.656 -3 M
-89.656 -10.875 L
-88.594 -10.875 L
-84.453 -4.688 L
-84.453 -10.875 L
-83.453 -10.875 L
-83.453 -3 L
-84.531 -3 L
-88.656 -9.188 L
-88.656 -3 L
-89.656 -3 L
cp
-82.445 -5.859 M
-82.445 -7.438 -81.554 -8.203 QT
-80.82 -8.828 -79.758 -8.828 QT
-78.586 -8.828 -77.843 -8.063 QT
-77.101 -7.297 -77.101 -5.938 QT
-77.101 -4.828 -77.429 -4.195 QT
-77.758 -3.563 -78.39 -3.219 QT
-79.023 -2.875 -79.758 -2.875 QT
-80.961 -2.875 -81.703 -3.641 QT
-82.445 -4.406 -82.445 -5.859 QT
cp
-81.445 -5.859 M
-81.445 -4.75 -80.968 -4.211 QT
-80.492 -3.672 -79.758 -3.672 QT
-79.039 -3.672 -78.562 -4.219 QT
-78.086 -4.766 -78.086 -5.891 QT
-78.086 -6.938 -78.57 -7.484 QT
-79.054 -8.031 -79.758 -8.031 QT
-80.492 -8.031 -80.968 -7.492 QT
-81.445 -6.953 -81.445 -5.859 QT
cp
-76.159 -3 M
-76.159 -8.703 L
-75.3 -8.703 L
-75.3 -7.844 L
-74.956 -8.453 -74.675 -8.641 QT
-74.394 -8.828 -74.065 -8.828 QT
-73.565 -8.828 -73.065 -8.516 QT
-73.394 -7.625 L
-73.753 -7.828 -74.112 -7.828 QT
-74.425 -7.828 -74.675 -7.641 QT
-74.925 -7.453 -75.034 -7.109 QT
-75.19 -6.594 -75.19 -5.984 QT
-75.19 -3 L
-76.159 -3 L
cp
-72.611 -3 M
-72.611 -8.703 L
-71.736 -8.703 L
-71.736 -7.906 L
-71.47 -8.328 -71.025 -8.578 QT
-70.579 -8.828 -70.017 -8.828 QT
-69.376 -8.828 -68.97 -8.57 QT
-68.564 -8.313 -68.392 -7.828 QT
-67.72 -8.828 -66.642 -8.828 QT
-65.782 -8.828 -65.329 -8.359 QT
-64.876 -7.891 -64.876 -6.922 QT
-64.876 -3 L
-65.829 -3 L
-65.829 -6.594 L
-65.829 -7.172 -65.923 -7.43 QT
-66.017 -7.688 -66.267 -7.844 QT
-66.517 -8 -66.845 -8 QT
-67.454 -8 -67.853 -7.594 QT
-68.251 -7.188 -68.251 -6.313 QT
-68.251 -3 L
-69.22 -3 L
-69.22 -6.703 L
-69.22 -7.344 -69.454 -7.672 QT
-69.689 -8 -70.22 -8 QT
-70.626 -8 -70.978 -7.781 QT
-71.329 -7.563 -71.486 -7.148 QT
-71.642 -6.734 -71.642 -5.953 QT
-71.642 -3 L
-72.611 -3 L
cp
-59.999 -3.703 M
-60.546 -3.25 -61.038 -3.063 QT
-61.531 -2.875 -62.109 -2.875 QT
-63.046 -2.875 -63.554 -3.336 QT
-64.062 -3.797 -64.062 -4.5 QT
-64.062 -4.922 -63.867 -5.266 QT
-63.671 -5.609 -63.367 -5.82 QT
-63.062 -6.031 -62.671 -6.141 QT
-62.39 -6.219 -61.812 -6.281 QT
-60.64 -6.422 -60.093 -6.625 QT
-60.078 -6.813 -60.078 -6.875 QT
-60.078 -7.469 -60.359 -7.703 QT
-60.718 -8.031 -61.453 -8.031 QT
-62.14 -8.031 -62.46 -7.797 QT
-62.781 -7.563 -62.937 -6.953 QT
-63.89 -7.078 L
-63.765 -7.688 -63.468 -8.063 QT
-63.171 -8.438 -62.609 -8.633 QT
-62.046 -8.828 -61.312 -8.828 QT
-60.578 -8.828 -60.124 -8.656 QT
-59.671 -8.484 -59.46 -8.227 QT
-59.249 -7.969 -59.156 -7.578 QT
-59.109 -7.328 -59.109 -6.672 QT
-59.109 -5.391 L
-59.109 -4.047 -59.046 -3.688 QT
-58.984 -3.328 -58.796 -3 QT
-59.812 -3 L
-59.968 -3.297 -59.999 -3.703 QT
cp
-60.093 -5.859 M
-60.609 -5.641 -61.671 -5.5 QT
-62.265 -5.406 -62.507 -5.305 QT
-62.749 -5.203 -62.89 -4.992 QT
-63.031 -4.781 -63.031 -4.531 QT
-63.031 -4.141 -62.734 -3.883 QT
-62.437 -3.625 -61.874 -3.625 QT
-61.312 -3.625 -60.882 -3.875 QT
-60.453 -4.125 -60.234 -4.547 QT
-60.093 -4.875 -60.093 -5.516 QT
-60.093 -5.859 L
cp
-57.823 -3 M
-57.823 -10.875 L
-56.854 -10.875 L
-56.854 -3 L
-57.823 -3 L
cp
-55.424 -9.766 M
-55.424 -10.875 L
-54.455 -10.875 L
-54.455 -9.766 L
-55.424 -9.766 L
cp
-55.424 -3 M
-55.424 -8.703 L
-54.455 -8.703 L
-54.455 -3 L
-55.424 -3 L
cp
-53.447 -4.703 M
-52.494 -4.859 L
-52.416 -4.281 -52.049 -3.977 QT
-51.682 -3.672 -51.025 -3.672 QT
-50.354 -3.672 -50.033 -3.938 QT
-49.713 -4.203 -49.713 -4.578 QT
-49.713 -4.906 -49.994 -5.094 QT
-50.197 -5.219 -50.979 -5.422 QT
-52.041 -5.688 -52.455 -5.883 QT
-52.869 -6.078 -53.08 -6.422 QT
-53.291 -6.766 -53.291 -7.188 QT
-53.291 -7.578 -53.119 -7.898 QT
-52.947 -8.219 -52.635 -8.438 QT
-52.416 -8.609 -52.025 -8.719 QT
-51.635 -8.828 -51.197 -8.828 QT
-50.525 -8.828 -50.018 -8.641 QT
-49.51 -8.453 -49.268 -8.117 QT
-49.025 -7.781 -48.932 -7.234 QT
-49.869 -7.109 L
-49.947 -7.547 -50.252 -7.789 QT
-50.557 -8.031 -51.119 -8.031 QT
-51.791 -8.031 -52.072 -7.813 QT
-52.354 -7.594 -52.354 -7.297 QT
-52.354 -7.109 -52.244 -6.969 QT
-52.119 -6.813 -51.869 -6.703 QT
-51.729 -6.656 -51.01 -6.453 QT
-49.994 -6.188 -49.588 -6.016 QT
-49.182 -5.844 -48.947 -5.508 QT
-48.713 -5.172 -48.713 -4.672 QT
-48.713 -4.188 -48.994 -3.766 QT
-49.275 -3.344 -49.807 -3.109 QT
-50.338 -2.875 -51.01 -2.875 QT
-52.119 -2.875 -52.705 -3.336 QT
-53.291 -3.797 -53.447 -4.703 QT
cp
-43.838 -4.844 M
-42.838 -4.719 L
-43.072 -3.844 -43.713 -3.359 QT
-44.354 -2.875 -45.338 -2.875 QT
-46.588 -2.875 -47.322 -3.641 QT
-48.057 -4.406 -48.057 -5.797 QT
-48.057 -7.25 -47.315 -8.039 QT
-46.572 -8.828 -45.4 -8.828 QT
-44.244 -8.828 -43.525 -8.055 QT
-42.807 -7.281 -42.807 -5.859 QT
-42.807 -5.781 -42.807 -5.609 QT
-47.057 -5.609 L
-47.01 -4.672 -46.533 -4.172 QT
-46.057 -3.672 -45.338 -3.672 QT
-44.807 -3.672 -44.432 -3.945 QT
-44.057 -4.219 -43.838 -4.844 QT
cp
-47.01 -6.406 M
-43.822 -6.406 L
-43.885 -7.125 -44.182 -7.484 QT
-44.65 -8.031 -45.385 -8.031 QT
-46.057 -8.031 -46.51 -7.586 QT
-46.963 -7.141 -47.01 -6.406 QT
cp
-38.115 -3 M
-38.115 -3.719 L
-38.646 -2.875 -39.708 -2.875 QT
-40.38 -2.875 -40.958 -3.25 QT
-41.536 -3.625 -41.849 -4.297 QT
-42.161 -4.969 -42.161 -5.844 QT
-42.161 -6.703 -41.872 -7.398 QT
-41.583 -8.094 -41.021 -8.461 QT
-40.458 -8.828 -39.755 -8.828 QT
-39.24 -8.828 -38.833 -8.609 QT
-38.427 -8.391 -38.177 -8.047 QT
-38.177 -10.875 L
-37.208 -10.875 L
-37.208 -3 L
-38.115 -3 L
cp
-41.161 -5.844 M
-41.161 -4.75 -40.701 -4.211 QT
-40.24 -3.672 -39.615 -3.672 QT
-38.974 -3.672 -38.536 -4.188 QT
-38.099 -4.703 -38.099 -5.766 QT
-38.099 -6.938 -38.544 -7.484 QT
-38.99 -8.031 -39.661 -8.031 QT
-40.302 -8.031 -40.732 -7.508 QT
-41.161 -6.984 -41.161 -5.844 QT
cp
-27.634 -10.875 M
-26.587 -10.875 L
-26.587 -6.328 L
-26.587 -5.141 -26.86 -4.438 QT
-27.134 -3.734 -27.829 -3.297 QT
-28.524 -2.859 -29.665 -2.859 QT
-30.774 -2.859 -31.477 -3.242 QT
-32.181 -3.625 -32.485 -4.352 QT
-32.79 -5.078 -32.79 -6.328 QT
-32.79 -10.875 L
-31.743 -10.875 L
-31.743 -6.328 L
-31.743 -5.297 -31.556 -4.813 QT
-31.368 -4.328 -30.899 -4.07 QT
-30.431 -3.813 -29.759 -3.813 QT
-28.618 -3.813 -28.126 -4.328 QT
-27.634 -4.844 -27.634 -6.328 QT
-27.634 -10.875 L
cp
-25.61 -4.703 M
-24.657 -4.859 L
-24.579 -4.281 -24.212 -3.977 QT
-23.844 -3.672 -23.188 -3.672 QT
-22.516 -3.672 -22.196 -3.938 QT
-21.876 -4.203 -21.876 -4.578 QT
-21.876 -4.906 -22.157 -5.094 QT
-22.36 -5.219 -23.141 -5.422 QT
-24.204 -5.688 -24.618 -5.883 QT
-25.032 -6.078 -25.243 -6.422 QT
-25.454 -6.766 -25.454 -7.188 QT
-25.454 -7.578 -25.282 -7.898 QT
-25.11 -8.219 -24.797 -8.438 QT
-24.579 -8.609 -24.188 -8.719 QT
-23.797 -8.828 -23.36 -8.828 QT
-22.688 -8.828 -22.18 -8.641 QT
-21.672 -8.453 -21.43 -8.117 QT
-21.188 -7.781 -21.094 -7.234 QT
-22.032 -7.109 L
-22.11 -7.547 -22.415 -7.789 QT
-22.719 -8.031 -23.282 -8.031 QT
-23.954 -8.031 -24.235 -7.813 QT
-24.516 -7.594 -24.516 -7.297 QT
-24.516 -7.109 -24.407 -6.969 QT
-24.282 -6.813 -24.032 -6.703 QT
-23.891 -6.656 -23.172 -6.453 QT
-22.157 -6.188 -21.751 -6.016 QT
-21.344 -5.844 -21.11 -5.508 QT
-20.876 -5.172 -20.876 -4.672 QT
-20.876 -4.188 -21.157 -3.766 QT
-21.438 -3.344 -21.969 -3.109 QT
-22.501 -2.875 -23.172 -2.875 QT
-24.282 -2.875 -24.868 -3.336 QT
-25.454 -3.797 -25.61 -4.703 QT
cp
-16.172 -3.703 M
-16.719 -3.25 -17.212 -3.063 QT
-17.704 -2.875 -18.282 -2.875 QT
-19.219 -2.875 -19.727 -3.336 QT
-20.235 -3.797 -20.235 -4.5 QT
-20.235 -4.922 -20.04 -5.266 QT
-19.844 -5.609 -19.54 -5.82 QT
-19.235 -6.031 -18.844 -6.141 QT
-18.563 -6.219 -17.985 -6.281 QT
-16.813 -6.422 -16.266 -6.625 QT
-16.251 -6.813 -16.251 -6.875 QT
-16.251 -7.469 -16.532 -7.703 QT
-16.891 -8.031 -17.626 -8.031 QT
-18.313 -8.031 -18.633 -7.797 QT
-18.954 -7.563 -19.11 -6.953 QT
-20.063 -7.078 L
-19.938 -7.688 -19.641 -8.063 QT
-19.344 -8.438 -18.782 -8.633 QT
-18.219 -8.828 -17.485 -8.828 QT
-16.751 -8.828 -16.297 -8.656 QT
-15.844 -8.484 -15.633 -8.227 QT
-15.422 -7.969 -15.329 -7.578 QT
-15.282 -7.328 -15.282 -6.672 QT
-15.282 -5.391 L
-15.282 -4.047 -15.219 -3.688 QT
-15.157 -3.328 -14.969 -3 QT
-15.985 -3 L
-16.141 -3.297 -16.172 -3.703 QT
cp
-16.266 -5.859 M
-16.782 -5.641 -17.844 -5.5 QT
-18.438 -5.406 -18.68 -5.305 QT
-18.922 -5.203 -19.063 -4.992 QT
-19.204 -4.781 -19.204 -4.531 QT
-19.204 -4.141 -18.907 -3.883 QT
-18.61 -3.625 -18.047 -3.625 QT
-17.485 -3.625 -17.055 -3.875 QT
-16.626 -4.125 -16.407 -4.547 QT
-16.266 -4.875 -16.266 -5.516 QT
-16.266 -5.859 L
cp
-13.09 -3 M
-13.98 -3 L
-13.98 -10.875 L
-13.012 -10.875 L
-13.012 -8.063 L
-12.402 -8.828 -11.449 -8.828 QT
-10.918 -8.828 -10.449 -8.617 QT
-9.98 -8.406 -9.676 -8.023 QT
-9.371 -7.641 -9.199 -7.102 QT
-9.027 -6.563 -9.027 -5.938 QT
-9.027 -4.469 -9.754 -3.672 QT
-10.48 -2.875 -11.496 -2.875 QT
-12.512 -2.875 -13.09 -3.719 QT
-13.09 -3 L
cp
-13.09 -5.891 M
-13.09 -4.875 -12.808 -4.406 QT
-12.355 -3.672 -11.574 -3.672 QT
-10.949 -3.672 -10.488 -4.219 QT
-10.027 -4.766 -10.027 -5.859 QT
-10.027 -6.969 -10.465 -7.5 QT
-10.902 -8.031 -11.543 -8.031 QT
-12.168 -8.031 -12.629 -7.484 QT
-13.09 -6.938 -13.09 -5.891 QT
cp
-8.069 -3 M
-8.069 -10.875 L
-7.101 -10.875 L
-7.101 -3 L
-8.069 -3 L
cp
-1.78 -4.844 M
-0.78 -4.719 L
-1.014 -3.844 -1.655 -3.359 QT
-2.296 -2.875 -3.28 -2.875 QT
-4.53 -2.875 -5.264 -3.641 QT
-5.999 -4.406 -5.999 -5.797 QT
-5.999 -7.25 -5.257 -8.039 QT
-4.514 -8.828 -3.343 -8.828 QT
-2.186 -8.828 -1.468 -8.055 QT
-0.749 -7.281 -0.749 -5.859 QT
-0.749 -5.781 -0.749 -5.609 QT
-4.999 -5.609 L
-4.952 -4.672 -4.475 -4.172 QT
-3.999 -3.672 -3.28 -3.672 QT
-2.749 -3.672 -2.374 -3.945 QT
-1.999 -4.219 -1.78 -4.844 QT
cp
-4.952 -6.406 M
-1.764 -6.406 L
-1.827 -7.125 -2.124 -7.484 QT
-2.593 -8.031 -3.327 -8.031 QT
-3.999 -8.031 -4.452 -7.586 QT
-4.905 -7.141 -4.952 -6.406 QT
cp
8.951 -5.766 M
9.998 -5.5 L
9.67 -4.219 8.818 -3.539 QT
7.966 -2.859 6.732 -2.859 QT
5.451 -2.859 4.654 -3.383 QT
3.857 -3.906 3.443 -4.891 QT
3.029 -5.875 3.029 -7 QT
3.029 -8.219 3.498 -9.141 QT
3.966 -10.063 4.834 -10.539 QT
5.701 -11.016 6.748 -11.016 QT
7.935 -11.016 8.74 -10.414 QT
9.545 -9.813 9.857 -8.719 QT
8.826 -8.469 L
8.56 -9.328 8.037 -9.719 QT
7.513 -10.109 6.732 -10.109 QT
5.81 -10.109 5.201 -9.68 QT
4.591 -9.25 4.349 -8.516 QT
4.107 -7.781 4.107 -7 QT
4.107 -6 4.396 -5.25 QT
4.685 -4.5 5.302 -4.125 QT
5.92 -3.75 6.638 -3.75 QT
7.513 -3.75 8.123 -4.258 QT
8.732 -4.766 8.951 -5.766 QT
cp
14.631 -3.703 M
14.084 -3.25 13.592 -3.063 QT
13.1 -2.875 12.521 -2.875 QT
11.584 -2.875 11.076 -3.336 QT
10.568 -3.797 10.568 -4.5 QT
10.568 -4.922 10.764 -5.266 QT
10.959 -5.609 11.264 -5.82 QT
11.568 -6.031 11.959 -6.141 QT
12.24 -6.219 12.818 -6.281 QT
13.99 -6.422 14.537 -6.625 QT
14.553 -6.813 14.553 -6.875 QT
14.553 -7.469 14.271 -7.703 QT
13.912 -8.031 13.178 -8.031 QT
12.49 -8.031 12.17 -7.797 QT
11.85 -7.563 11.693 -6.953 QT
10.74 -7.078 L
10.865 -7.688 11.162 -8.063 QT
11.459 -8.438 12.021 -8.633 QT
12.584 -8.828 13.318 -8.828 QT
14.053 -8.828 14.506 -8.656 QT
14.959 -8.484 15.17 -8.227 QT
15.381 -7.969 15.475 -7.578 QT
15.521 -7.328 15.521 -6.672 QT
15.521 -5.391 L
15.521 -4.047 15.584 -3.688 QT
15.646 -3.328 15.834 -3 QT
14.818 -3 L
14.662 -3.297 14.631 -3.703 QT
cp
14.537 -5.859 M
14.021 -5.641 12.959 -5.5 QT
12.365 -5.406 12.123 -5.305 QT
11.881 -5.203 11.74 -4.992 QT
11.6 -4.781 11.6 -4.531 QT
11.6 -4.141 11.896 -3.883 QT
12.193 -3.625 12.756 -3.625 QT
13.318 -3.625 13.748 -3.875 QT
14.178 -4.125 14.396 -4.547 QT
14.537 -4.875 14.537 -5.516 QT
14.537 -5.859 L
cp
16.823 -0.813 M
16.823 -8.703 L
17.714 -8.703 L
17.714 -7.969 L
18.026 -8.391 18.417 -8.609 QT
18.807 -8.828 19.37 -8.828 QT
20.089 -8.828 20.651 -8.453 QT
21.214 -8.078 21.495 -7.398 QT
21.776 -6.719 21.776 -5.891 QT
21.776 -5.016 21.464 -4.32 QT
21.151 -3.625 20.549 -3.25 QT
19.948 -2.875 19.292 -2.875 QT
18.807 -2.875 18.424 -3.078 QT
18.042 -3.281 17.792 -3.594 QT
17.792 -0.813 L
16.823 -0.813 L
cp
17.698 -5.813 M
17.698 -4.719 18.151 -4.195 QT
18.604 -3.672 19.229 -3.672 QT
19.87 -3.672 20.331 -4.211 QT
20.792 -4.75 20.792 -5.906 QT
20.792 -6.984 20.346 -7.531 QT
19.901 -8.078 19.276 -8.078 QT
18.651 -8.078 18.174 -7.5 QT
17.698 -6.922 17.698 -5.813 QT
cp
26.484 -3.703 M
25.937 -3.25 25.445 -3.063 QT
24.952 -2.875 24.374 -2.875 QT
23.437 -2.875 22.929 -3.336 QT
22.421 -3.797 22.421 -4.5 QT
22.421 -4.922 22.617 -5.266 QT
22.812 -5.609 23.117 -5.82 QT
23.421 -6.031 23.812 -6.141 QT
24.093 -6.219 24.671 -6.281 QT
25.843 -6.422 26.39 -6.625 QT
26.406 -6.813 26.406 -6.875 QT
26.406 -7.469 26.124 -7.703 QT
25.765 -8.031 25.031 -8.031 QT
24.343 -8.031 24.023 -7.797 QT
23.702 -7.563 23.546 -6.953 QT
22.593 -7.078 L
22.718 -7.688 23.015 -8.063 QT
23.312 -8.438 23.874 -8.633 QT
24.437 -8.828 25.171 -8.828 QT
25.906 -8.828 26.359 -8.656 QT
26.812 -8.484 27.023 -8.227 QT
27.234 -7.969 27.327 -7.578 QT
27.374 -7.328 27.374 -6.672 QT
27.374 -5.391 L
27.374 -4.047 27.437 -3.688 QT
27.499 -3.328 27.687 -3 QT
26.671 -3 L
26.515 -3.297 26.484 -3.703 QT
cp
26.39 -5.859 M
25.874 -5.641 24.812 -5.5 QT
24.218 -5.406 23.976 -5.305 QT
23.734 -5.203 23.593 -4.992 QT
23.452 -4.781 23.452 -4.531 QT
23.452 -4.141 23.749 -3.883 QT
24.046 -3.625 24.609 -3.625 QT
25.171 -3.625 25.601 -3.875 QT
26.031 -4.125 26.249 -4.547 QT
26.39 -4.875 26.39 -5.516 QT
26.39 -5.859 L
cp
32.41 -5.094 M
33.348 -4.969 L
33.207 -3.984 32.559 -3.43 QT
31.91 -2.875 30.988 -2.875 QT
29.816 -2.875 29.106 -3.641 QT
28.395 -4.406 28.395 -5.828 QT
28.395 -6.75 28.699 -7.445 QT
29.004 -8.141 29.629 -8.484 QT
30.254 -8.828 30.988 -8.828 QT
31.91 -8.828 32.504 -8.359 QT
33.098 -7.891 33.27 -7.031 QT
32.316 -6.891 L
32.191 -7.453 31.848 -7.742 QT
31.504 -8.031 31.02 -8.031 QT
30.301 -8.031 29.84 -7.508 QT
29.379 -6.984 29.379 -5.859 QT
29.379 -4.703 29.816 -4.188 QT
30.254 -3.672 30.973 -3.672 QT
31.535 -3.672 31.918 -4.016 QT
32.301 -4.359 32.41 -5.094 QT
cp
34.02 -9.766 M
34.02 -10.875 L
34.988 -10.875 L
34.988 -9.766 L
34.02 -9.766 L
cp
34.02 -3 M
34.02 -8.703 L
34.988 -8.703 L
34.988 -3 L
34.02 -3 L
cp
38.496 -3.859 M
38.621 -3.016 L
38.215 -2.922 37.903 -2.922 QT
37.371 -2.922 37.082 -3.094 QT
36.793 -3.266 36.676 -3.531 QT
36.559 -3.797 36.559 -4.672 QT
36.559 -7.953 L
35.84 -7.953 L
35.84 -8.703 L
36.559 -8.703 L
36.559 -10.109 L
37.512 -10.703 L
37.512 -8.703 L
38.496 -8.703 L
38.496 -7.953 L
37.512 -7.953 L
37.512 -4.609 L
37.512 -4.203 37.567 -4.086 QT
37.621 -3.969 37.739 -3.898 QT
37.856 -3.828 38.059 -3.828 QT
38.231 -3.828 38.496 -3.859 QT
cp
39.301 -0.797 M
39.191 -1.703 L
39.504 -1.625 39.738 -1.625 QT
40.066 -1.625 40.262 -1.734 QT
40.457 -1.844 40.566 -2.031 QT
40.66 -2.172 40.863 -2.75 QT
40.895 -2.828 40.957 -2.984 QT
38.785 -8.703 L
39.832 -8.703 L
41.02 -5.406 L
41.254 -4.766 41.426 -4.078 QT
41.598 -4.75 41.832 -5.375 QT
43.051 -8.703 L
44.02 -8.703 L
41.848 -2.906 L
41.504 -1.969 41.301 -1.609 QT
41.051 -1.125 40.715 -0.906 QT
40.379 -0.688 39.926 -0.688 QT
39.645 -0.688 39.301 -0.797 QT
cp
51.355 -3.703 M
50.808 -3.25 50.316 -3.063 QT
49.824 -2.875 49.246 -2.875 QT
48.308 -2.875 47.801 -3.336 QT
47.293 -3.797 47.293 -4.5 QT
47.293 -4.922 47.488 -5.266 QT
47.683 -5.609 47.988 -5.82 QT
48.293 -6.031 48.683 -6.141 QT
48.965 -6.219 49.543 -6.281 QT
50.715 -6.422 51.262 -6.625 QT
51.277 -6.813 51.277 -6.875 QT
51.277 -7.469 50.996 -7.703 QT
50.637 -8.031 49.902 -8.031 QT
49.215 -8.031 48.894 -7.797 QT
48.574 -7.563 48.418 -6.953 QT
47.465 -7.078 L
47.59 -7.688 47.887 -8.063 QT
48.183 -8.438 48.746 -8.633 QT
49.308 -8.828 50.043 -8.828 QT
50.777 -8.828 51.23 -8.656 QT
51.683 -8.484 51.894 -8.227 QT
52.105 -7.969 52.199 -7.578 QT
52.246 -7.328 52.246 -6.672 QT
52.246 -5.391 L
52.246 -4.047 52.308 -3.688 QT
52.371 -3.328 52.558 -3 QT
51.543 -3 L
51.387 -3.297 51.355 -3.703 QT
cp
51.262 -5.859 M
50.746 -5.641 49.683 -5.5 QT
49.09 -5.406 48.847 -5.305 QT
48.605 -5.203 48.465 -4.992 QT
48.324 -4.781 48.324 -4.531 QT
48.324 -4.141 48.621 -3.883 QT
48.918 -3.625 49.48 -3.625 QT
50.043 -3.625 50.472 -3.875 QT
50.902 -4.125 51.121 -4.547 QT
51.262 -4.875 51.262 -5.516 QT
51.262 -5.859 L
cp
55.672 -3.859 M
55.797 -3.016 L
55.391 -2.922 55.079 -2.922 QT
54.547 -2.922 54.258 -3.094 QT
53.969 -3.266 53.852 -3.531 QT
53.735 -3.797 53.735 -4.672 QT
53.735 -7.953 L
53.016 -7.953 L
53.016 -8.703 L
53.735 -8.703 L
53.735 -10.109 L
54.688 -10.703 L
54.688 -8.703 L
55.672 -8.703 L
55.672 -7.953 L
54.688 -7.953 L
54.688 -4.609 L
54.688 -4.203 54.743 -4.086 QT
54.797 -3.969 54.915 -3.898 QT
55.032 -3.828 55.235 -3.828 QT
55.407 -3.828 55.672 -3.859 QT
cp
64.281 -3.922 M
64.281 -3 L
59.078 -3 L
59.078 -3.344 59.203 -3.672 QT
59.391 -4.203 59.828 -4.719 QT
60.266 -5.234 61.094 -5.906 QT
62.375 -6.969 62.828 -7.578 QT
63.281 -8.188 63.281 -8.734 QT
63.281 -9.313 62.875 -9.711 QT
62.469 -10.109 61.797 -10.109 QT
61.109 -10.109 60.687 -9.688 QT
60.266 -9.266 60.266 -8.531 QT
59.266 -8.625 L
59.375 -9.734 60.039 -10.32 QT
60.703 -10.906 61.828 -10.906 QT
62.953 -10.906 63.617 -10.281 QT
64.281 -9.656 64.281 -8.719 QT
64.281 -8.25 64.086 -7.789 QT
63.891 -7.328 63.445 -6.828 QT
63 -6.328 61.953 -5.438 QT
61.078 -4.719 60.836 -4.453 QT
60.594 -4.188 60.422 -3.922 QT
64.281 -3.922 L
cp
65.13 -5.063 M
66.145 -5.156 L
66.255 -4.406 66.669 -4.031 QT
67.083 -3.656 67.661 -3.656 QT
68.364 -3.656 68.848 -4.188 QT
69.333 -4.719 69.333 -5.578 QT
69.333 -6.406 68.864 -6.883 QT
68.395 -7.359 67.645 -7.359 QT
67.176 -7.359 66.801 -7.148 QT
66.426 -6.938 66.208 -6.609 QT
65.301 -6.719 L
66.067 -10.766 L
69.989 -10.766 L
69.989 -9.844 L
66.848 -9.844 L
66.411 -7.734 L
67.13 -8.219 67.911 -8.219 QT
68.942 -8.219 69.645 -7.508 QT
70.348 -6.797 70.348 -5.672 QT
70.348 -4.594 69.723 -3.828 QT
68.973 -2.859 67.661 -2.859 QT
66.583 -2.859 65.903 -3.461 QT
65.223 -4.063 65.13 -5.063 QT
cp
74.439 -10.188 M
74.439 -10.578 74.72 -10.859 QT
75.001 -11.141 75.407 -11.141 QT
75.798 -11.141 76.079 -10.859 QT
76.36 -10.578 76.36 -10.172 QT
76.36 -9.75 76.079 -9.469 QT
75.798 -9.188 75.407 -9.188 QT
75.001 -9.188 74.72 -9.469 QT
74.439 -9.75 74.439 -10.188 QT
cp
74.845 -10.188 M
74.845 -9.922 75.009 -9.75 QT
75.173 -9.578 75.407 -9.578 QT
75.642 -9.578 75.814 -9.75 QT
75.985 -9.922 75.985 -10.172 QT
75.985 -10.406 75.814 -10.578 QT
75.642 -10.75 75.407 -10.75 QT
75.173 -10.75 75.009 -10.586 QT
74.845 -10.422 74.845 -10.188 QT
cp
83.581 -5.766 M
84.628 -5.5 L
84.3 -4.219 83.448 -3.539 QT
82.597 -2.859 81.362 -2.859 QT
80.081 -2.859 79.284 -3.383 QT
78.487 -3.906 78.073 -4.891 QT
77.659 -5.875 77.659 -7 QT
77.659 -8.219 78.128 -9.141 QT
78.597 -10.063 79.464 -10.539 QT
80.331 -11.016 81.378 -11.016 QT
82.565 -11.016 83.37 -10.414 QT
84.175 -9.813 84.487 -8.719 QT
83.456 -8.469 L
83.19 -9.328 82.667 -9.719 QT
82.143 -10.109 81.362 -10.109 QT
80.44 -10.109 79.831 -9.68 QT
79.222 -9.25 78.979 -8.516 QT
78.737 -7.781 78.737 -7 QT
78.737 -6 79.026 -5.25 QT
79.315 -4.5 79.933 -4.125 QT
80.55 -3.75 81.268 -3.75 QT
82.143 -3.75 82.753 -4.258 QT
83.362 -4.766 83.581 -5.766 QT
cp
f
GR
GS
[0.75 0 0 0.75 0 0] CT
0 0.447 0.741 RC
1 LJ
2.667 LW
N
65 72 M
87.24 78.79 L
109.48 95.803 L
131.72 105.911 L
153.96 107.098 L
176.2 116.134 L
198.44 126.138 L
220.68 138.182 L
242.92 151.503 L
265.16 169.175 L
287.4 178.302 L
309.64 191.081 L
331.88 204.506 L
343.028 210.323 L
S
GR
GS
[0.75 0 0 0.75 0 0] CT
0.851 0.325 0.098 RC
1 LJ
2.667 LW
N
65 72 M
87.24 69.031 L
109.48 85.89 L
131.72 95.597 L
153.96 95.222 L
176.2 106.53 L
198.44 115.979 L
220.68 127.403 L
242.92 142.442 L
265.16 163.095 L
287.4 170.75 L
309.64 184.343 L
331.88 198.219 L
343.028 204.457 L
S
GR
GS
[0.75 0 0 0.75 0 0] CT
0.929 0.694 0.125 RC
1 LJ
2.667 LW
N
65 72 M
87.24 67.727 L
109.48 68.315 L
131.72 76.351 L
153.96 83.707 L
176.2 91.325 L
198.44 104.587 L
220.68 118.516 L
242.92 133.346 L
265.16 148.764 L
287.4 162.014 L
309.64 175.694 L
331.88 188.015 L
343.028 194.067 L
S
GR
GS
[0.75 0 0 0.75 0 0] CT
1 GC
N
273 84 M
273 34 L
340 34 L
340 84 L
cp
f
GR
GS
[0.75 0 0 0.75 232.5 32.625] CT
/Helvetica 10.667 F
GS
[1 0 0 1 0 0] CT
0 4.5 moveto 
1 -1 scale
(cell 1) t 
GR
GR
GS
[0.75 0 0 0.75 0 0] CT
0 0.447 0.741 RC
1 LJ
2.667 LW
N
277 43.5 M
307 43.5 L
S
GR
GS
[0.75 0 0 0.75 232.5 44.25] CT
/Helvetica 10.667 F
GS
[1 0 0 1 0 0] CT
0 4.5 moveto 
1 -1 scale
(cell 2) t 
GR
GR
GS
[0.75 0 0 0.75 0 0] CT
0.851 0.325 0.098 RC
1 LJ
2.667 LW
N
277 59 M
307 59 L
S
GR
GS
[0.75 0 0 0.75 232.5 55.875] CT
/Helvetica 10.667 F
GS
[1 0 0 1 0 0] CT
0 4.5 moveto 
1 -1 scale
(cell 3) t 
GR
GR
GS
[0.75 0 0 0.75 0 0] CT
0.929 0.694 0.125 RC
1 LJ
2.667 LW
N
277 74.5 M
307 74.5 L
S
GR
GS
[0.75 0 0 0.75 0 0] CT
0.149 GC
10.0 ML
0.667 LW
N
273 84 M
273 34 L
340 34 L
340 84 L
cp
S
GR
%%Trailer
%%Pages: 1
%%EOF
