%!PS-Adobe-3.0 EPSF-3.0
%%Creator: (MATLAB, The Mathworks, Inc. Version 9.0.0.341360 \(R2016a\). Operating System: Windows 7)
%%Title: (C:/Users/kamyar.makinejad/Dropbox/TUM-CREATE/Paper with RP3/IEEEtran/plots/Cell5_OCV.eps)
%%CreationDate: 2016-03-30T16:53:59
%%Pages: (atend)
%%BoundingBox: 0 0 576 432
%%LanguageLevel: 3
%%EndComments
%%BeginProlog
%%BeginResource: procset (Apache XML Graphics Std ProcSet) 1.2 0
%%Version: 1.2 0
%%Copyright: (Copyright 2001-2003,2010 The Apache Software Foundation. License terms: http://www.apache.org/licenses/LICENSE-2.0)
/bd{bind def}bind def
/ld{load def}bd
/GR/grestore ld
/M/moveto ld
/LJ/setlinejoin ld
/C/curveto ld
/f/fill ld
/LW/setlinewidth ld
/GC/setgray ld
/t/show ld
/N/newpath ld
/CT/concat ld
/cp/closepath ld
/S/stroke ld
/L/lineto ld
/CC/setcmykcolor ld
/A/ashow ld
/GS/gsave ld
/RC/setrgbcolor ld
/RM/rmoveto ld
/ML/setmiterlimit ld
/re {4 2 roll M
1 index 0 rlineto
0 exch rlineto
neg 0 rlineto
cp } bd
/_ctm matrix def
/_tm matrix def
/BT { _ctm currentmatrix pop matrix _tm copy pop 0 0 moveto } bd
/ET { _ctm setmatrix } bd
/iTm { _ctm setmatrix _tm concat } bd
/Tm { _tm astore pop iTm 0 0 moveto } bd
/ux 0.0 def
/uy 0.0 def
/F {
  /Tp exch def
  /Tf exch def
  Tf findfont Tp scalefont setfont
  /cf Tf def  /cs Tp def
} bd
/ULS {currentpoint /uy exch def /ux exch def} bd
/ULE {
  /Tcx currentpoint pop def
  gsave
  newpath
  cf findfont cs scalefont dup
  /FontMatrix get 0 get /Ts exch def /FontInfo get dup
  /UnderlinePosition get Ts mul /To exch def
  /UnderlineThickness get Ts mul /Tt exch def
  ux uy To add moveto  Tcx uy To add lineto
  Tt setlinewidth stroke
  grestore
} bd
/OLE {
  /Tcx currentpoint pop def
  gsave
  newpath
  cf findfont cs scalefont dup
  /FontMatrix get 0 get /Ts exch def /FontInfo get dup
  /UnderlinePosition get Ts mul /To exch def
  /UnderlineThickness get Ts mul /Tt exch def
  ux uy To add cs add moveto Tcx uy To add cs add lineto
  Tt setlinewidth stroke
  grestore
} bd
/SOE {
  /Tcx currentpoint pop def
  gsave
  newpath
  cf findfont cs scalefont dup
  /FontMatrix get 0 get /Ts exch def /FontInfo get dup
  /UnderlinePosition get Ts mul /To exch def
  /UnderlineThickness get Ts mul /Tt exch def
  ux uy To add cs 10 mul 26 idiv add moveto Tcx uy To add cs 10 mul 26 idiv add lineto
  Tt setlinewidth stroke
  grestore
} bd
/QT {
/Y22 exch store
/X22 exch store
/Y21 exch store
/X21 exch store
currentpoint
/Y21 load 2 mul add 3 div exch
/X21 load 2 mul add 3 div exch
/X21 load 2 mul /X22 load add 3 div
/Y21 load 2 mul /Y22 load add 3 div
/X22 load /Y22 load curveto
} bd
/SSPD {
dup length /d exch dict def
{
/v exch def
/k exch def
currentpagedevice k known {
/cpdv currentpagedevice k get def
v cpdv ne {
/upd false def
/nullv v type /nulltype eq def
/nullcpdv cpdv type /nulltype eq def
nullv nullcpdv or
{
/upd true def
} {
/sametype v type cpdv type eq def
sametype {
v type /arraytype eq {
/vlen v length def
/cpdvlen cpdv length def
vlen cpdvlen eq {
0 1 vlen 1 sub {
/i exch def
/obj v i get def
/cpdobj cpdv i get def
obj cpdobj ne {
/upd true def
exit
} if
} for
} {
/upd true def
} ifelse
} {
v type /dicttype eq {
v {
/dv exch def
/dk exch def
/cpddv cpdv dk get def
dv cpddv ne {
/upd true def
exit
} if
} forall
} {
/upd true def
} ifelse
} ifelse
} if
} ifelse
upd true eq {
d k v put
} if
} if
} if
} forall
d length 0 gt {
d setpagedevice
} if
} bd
%%EndResource
%%BeginResource: procset (Apache XML Graphics EPS ProcSet) 1.0 0
%%Version: 1.0 0
%%Copyright: (Copyright 2002-2003 The Apache Software Foundation. License terms: http://www.apache.org/licenses/LICENSE-2.0)
/BeginEPSF { %def
/b4_Inc_state save def         % Save state for cleanup
/dict_count countdictstack def % Count objects on dict stack
/op_count count 1 sub def      % Count objects on operand stack
userdict begin                 % Push userdict on dict stack
/showpage { } def              % Redefine showpage, { } = null proc
0 setgray 0 setlinecap         % Prepare graphics state
1 setlinewidth 0 setlinejoin
10 setmiterlimit [ ] 0 setdash newpath
/languagelevel where           % If level not equal to 1 then
{pop languagelevel             % set strokeadjust and
1 ne                           % overprint to their defaults.
{false setstrokeadjust false setoverprint
} if
} if
} bd
/EndEPSF { %def
count op_count sub {pop} repeat            % Clean up stacks
countdictstack dict_count sub {end} repeat
b4_Inc_state restore
} bd
%%EndResource
%FOPBeginFontDict
%%IncludeResource: font Courier-Bold
%%IncludeResource: font Helvetica
%%IncludeResource: font Courier-BoldOblique
%%IncludeResource: font Courier-Oblique
%%IncludeResource: font Times-Roman
%%IncludeResource: font Helvetica-BoldOblique
%%IncludeResource: font Helvetica-Bold
%%IncludeResource: font Helvetica-Oblique
%%IncludeResource: font Times-BoldItalic
%%IncludeResource: font Courier
%%IncludeResource: font Times-Italic
%%IncludeResource: font Times-Bold
%%IncludeResource: font Symbol
%%IncludeResource: font ZapfDingbats
%FOPEndFontDict
%%BeginResource: encoding WinAnsiEncoding
/WinAnsiEncoding [
/.notdef /.notdef /.notdef /.notdef /.notdef
/.notdef /.notdef /.notdef /.notdef /.notdef
/.notdef /.notdef /.notdef /.notdef /.notdef
/.notdef /.notdef /.notdef /.notdef /.notdef
/.notdef /.notdef /.notdef /.notdef /.notdef
/.notdef /.notdef /.notdef /.notdef /.notdef
/.notdef /.notdef /space /exclam /quotedbl
/numbersign /dollar /percent /ampersand /quotesingle
/parenleft /parenright /asterisk /plus /comma
/hyphen /period /slash /zero /one
/two /three /four /five /six
/seven /eight /nine /colon /semicolon
/less /equal /greater /question /at
/A /B /C /D /E
/F /G /H /I /J
/K /L /M /N /O
/P /Q /R /S /T
/U /V /W /X /Y
/Z /bracketleft /backslash /bracketright /asciicircum
/underscore /quoteleft /a /b /c
/d /e /f /g /h
/i /j /k /l /m
/n /o /p /q /r
/s /t /u /v /w
/x /y /z /braceleft /bar
/braceright /asciitilde /bullet /Euro /bullet
/quotesinglbase /florin /quotedblbase /ellipsis /dagger
/daggerdbl /circumflex /perthousand /Scaron /guilsinglleft
/OE /bullet /Zcaron /bullet /bullet
/quoteleft /quoteright /quotedblleft /quotedblright /bullet
/endash /emdash /asciitilde /trademark /scaron
/guilsinglright /oe /bullet /zcaron /Ydieresis
/space /exclamdown /cent /sterling /currency
/yen /brokenbar /section /dieresis /copyright
/ordfeminine /guillemotleft /logicalnot /sfthyphen /registered
/macron /degree /plusminus /twosuperior /threesuperior
/acute /mu /paragraph /middot /cedilla
/onesuperior /ordmasculine /guillemotright /onequarter /onehalf
/threequarters /questiondown /Agrave /Aacute /Acircumflex
/Atilde /Adieresis /Aring /AE /Ccedilla
/Egrave /Eacute /Ecircumflex /Edieresis /Igrave
/Iacute /Icircumflex /Idieresis /Eth /Ntilde
/Ograve /Oacute /Ocircumflex /Otilde /Odieresis
/multiply /Oslash /Ugrave /Uacute /Ucircumflex
/Udieresis /Yacute /Thorn /germandbls /agrave
/aacute /acircumflex /atilde /adieresis /aring
/ae /ccedilla /egrave /eacute /ecircumflex
/edieresis /igrave /iacute /icircumflex /idieresis
/eth /ntilde /ograve /oacute /ocircumflex
/otilde /odieresis /divide /oslash /ugrave
/uacute /ucircumflex /udieresis /yacute /thorn
/ydieresis
] def
%%EndResource
%FOPBeginFontReencode
/Courier-Bold findfont
dup length dict begin
  {1 index /FID ne {def} {pop pop} ifelse} forall
  /Encoding WinAnsiEncoding def
  currentdict
end
/Courier-Bold exch definefont pop
/Helvetica findfont
dup length dict begin
  {1 index /FID ne {def} {pop pop} ifelse} forall
  /Encoding WinAnsiEncoding def
  currentdict
end
/Helvetica exch definefont pop
/Courier-BoldOblique findfont
dup length dict begin
  {1 index /FID ne {def} {pop pop} ifelse} forall
  /Encoding WinAnsiEncoding def
  currentdict
end
/Courier-BoldOblique exch definefont pop
/Courier-Oblique findfont
dup length dict begin
  {1 index /FID ne {def} {pop pop} ifelse} forall
  /Encoding WinAnsiEncoding def
  currentdict
end
/Courier-Oblique exch definefont pop
/Times-Roman findfont
dup length dict begin
  {1 index /FID ne {def} {pop pop} ifelse} forall
  /Encoding WinAnsiEncoding def
  currentdict
end
/Times-Roman exch definefont pop
/Helvetica-BoldOblique findfont
dup length dict begin
  {1 index /FID ne {def} {pop pop} ifelse} forall
  /Encoding WinAnsiEncoding def
  currentdict
end
/Helvetica-BoldOblique exch definefont pop
/Helvetica-Bold findfont
dup length dict begin
  {1 index /FID ne {def} {pop pop} ifelse} forall
  /Encoding WinAnsiEncoding def
  currentdict
end
/Helvetica-Bold exch definefont pop
/Helvetica-Oblique findfont
dup length dict begin
  {1 index /FID ne {def} {pop pop} ifelse} forall
  /Encoding WinAnsiEncoding def
  currentdict
end
/Helvetica-Oblique exch definefont pop
/Times-BoldItalic findfont
dup length dict begin
  {1 index /FID ne {def} {pop pop} ifelse} forall
  /Encoding WinAnsiEncoding def
  currentdict
end
/Times-BoldItalic exch definefont pop
/Courier findfont
dup length dict begin
  {1 index /FID ne {def} {pop pop} ifelse} forall
  /Encoding WinAnsiEncoding def
  currentdict
end
/Courier exch definefont pop
/Times-Italic findfont
dup length dict begin
  {1 index /FID ne {def} {pop pop} ifelse} forall
  /Encoding WinAnsiEncoding def
  currentdict
end
/Times-Italic exch definefont pop
/Times-Bold findfont
dup length dict begin
  {1 index /FID ne {def} {pop pop} ifelse} forall
  /Encoding WinAnsiEncoding def
  currentdict
end
/Times-Bold exch definefont pop
%FOPEndFontReencode
%%EndProlog
%%Page: 1 1
%%PageBoundingBox: 0 0 576 432
%%BeginPageSetup
[1 0 0 -1 0 432] CT
%%EndPageSetup
GS
[0.75 0 0 0.75 0 0] CT
1 GC
N
0 0 768 576 re
f
GR
GS
[0.75 0 0 0.75 0 0] CT
1 GC
N
0 0 768 576 re
f
GR
GS
[0.75 0 0 0.75 0 0] CT
1 GC
N
67 235 M
346 235 L
346 33 L
67 33 L
cp
f
GR
GS
[0.75 0 0 0.75 0 0] CT
0.873 GC
1 LJ
0.667 LW
N
67 235 M
67 33 L
S
GR
GS
[0.75 0 0 0.75 0 0] CT
0.873 GC
1 LJ
0.667 LW
N
122.8 235 M
122.8 33 L
S
GR
GS
[0.75 0 0 0.75 0 0] CT
0.873 GC
1 LJ
0.667 LW
N
178.6 235 M
178.6 33 L
S
GR
GS
[0.75 0 0 0.75 0 0] CT
0.873 GC
1 LJ
0.667 LW
N
234.4 235 M
234.4 33 L
S
GR
GS
[0.75 0 0 0.75 0 0] CT
0.873 GC
1 LJ
0.667 LW
N
290.2 235 M
290.2 33 L
S
GR
GS
[0.75 0 0 0.75 0 0] CT
0.873 GC
1 LJ
0.667 LW
N
346 235 M
346 33 L
S
GR
GS
[0.75 0 0 0.75 0 0] CT
0.873 GC
1 LJ
0.667 LW
N
346 235 M
67 235 L
S
GR
GS
[0.75 0 0 0.75 0 0] CT
0.873 GC
1 LJ
0.667 LW
N
346 194.6 M
67 194.6 L
S
GR
GS
[0.75 0 0 0.75 0 0] CT
0.873 GC
1 LJ
0.667 LW
N
346 154.2 M
67 154.2 L
S
GR
GS
[0.75 0 0 0.75 0 0] CT
0.873 GC
1 LJ
0.667 LW
N
346 113.8 M
67 113.8 L
S
GR
GS
[0.75 0 0 0.75 0 0] CT
0.873 GC
1 LJ
0.667 LW
N
346 73.4 M
67 73.4 L
S
GR
GS
[0.75 0 0 0.75 0 0] CT
0.873 GC
1 LJ
0.667 LW
N
346 33 M
67 33 L
S
GR
GS
[0.75 0 0 0.75 0 0] CT
0.149 GC
2 setlinecap
1 LJ
1.333 LW
N
67 235 M
346 235 L
S
GR
GS
[0.75 0 0 0.75 0 0] CT
0.149 GC
2 setlinecap
1 LJ
1.333 LW
N
67 33 M
346 33 L
S
GR
GS
[0.75 0 0 0.75 0 0] CT
0.149 GC
2 setlinecap
1 LJ
1.333 LW
N
67 235 M
67 232.21 L
S
GR
GS
[0.75 0 0 0.75 0 0] CT
0.149 GC
2 setlinecap
1 LJ
1.333 LW
N
122.8 235 M
122.8 232.21 L
S
GR
GS
[0.75 0 0 0.75 0 0] CT
0.149 GC
2 setlinecap
1 LJ
1.333 LW
N
178.6 235 M
178.6 232.21 L
S
GR
GS
[0.75 0 0 0.75 0 0] CT
0.149 GC
2 setlinecap
1 LJ
1.333 LW
N
234.4 235 M
234.4 232.21 L
S
GR
GS
[0.75 0 0 0.75 0 0] CT
0.149 GC
2 setlinecap
1 LJ
1.333 LW
N
290.2 235 M
290.2 232.21 L
S
GR
GS
[0.75 0 0 0.75 0 0] CT
0.149 GC
2 setlinecap
1 LJ
1.333 LW
N
346 235 M
346 232.21 L
S
GR
GS
[0.75 0 0 0.75 0 0] CT
0.149 GC
2 setlinecap
1 LJ
1.333 LW
N
67 33 M
67 35.79 L
S
GR
GS
[0.75 0 0 0.75 0 0] CT
0.149 GC
2 setlinecap
1 LJ
1.333 LW
N
122.8 33 M
122.8 35.79 L
S
GR
GS
[0.75 0 0 0.75 0 0] CT
0.149 GC
2 setlinecap
1 LJ
1.333 LW
N
178.6 33 M
178.6 35.79 L
S
GR
GS
[0.75 0 0 0.75 0 0] CT
0.149 GC
2 setlinecap
1 LJ
1.333 LW
N
234.4 33 M
234.4 35.79 L
S
GR
GS
[0.75 0 0 0.75 0 0] CT
0.149 GC
2 setlinecap
1 LJ
1.333 LW
N
290.2 33 M
290.2 35.79 L
S
GR
GS
[0.75 0 0 0.75 0 0] CT
0.149 GC
2 setlinecap
1 LJ
1.333 LW
N
346 33 M
346 35.79 L
S
GR
GS
[0.75 0 0 0.75 50.25 179.85] CT
0.149 GC
/Helvetica 10.667 F
GS
[1 0 0 1 0 0] CT
-3.5 12 moveto 
1 -1 scale
(0) t 
GR
GR
GS
[0.75 0 0 0.75 92.1 179.85] CT
0.149 GC
/Helvetica 10.667 F
GS
[1 0 0 1 0 0] CT
-9.5 12 moveto 
1 -1 scale
(500) t 
GR
GR
GS
[0.75 0 0 0.75 133.95 179.85] CT
0.149 GC
/Helvetica 10.667 F
GS
[1 0 0 1 0 0] CT
-12.5 12 moveto 
1 -1 scale
(1000) t 
GR
GR
GS
[0.75 0 0 0.75 175.8 179.85] CT
0.149 GC
/Helvetica 10.667 F
GS
[1 0 0 1 0 0] CT
-12.5 12 moveto 
1 -1 scale
(1500) t 
GR
GR
GS
[0.75 0 0 0.75 217.65001 179.85] CT
0.149 GC
/Helvetica 10.667 F
GS
[1 0 0 1 0 0] CT
-12.5 12 moveto 
1 -1 scale
(2000) t 
GR
GR
GS
[0.75 0 0 0.75 259.5 179.85] CT
0.149 GC
/Helvetica 10.667 F
GS
[1 0 0 1 0 0] CT
-12.5 12 moveto 
1 -1 scale
(2500) t 
GR
GR
GS
[0.75 0 0 0.75 154.8751 192.1] CT
0.149 GC
/Helvetica 10.667 F
GS
[1 0 0 1 0 0] CT
-17 12 moveto 
1 -1 scale
(Cycles) t 
GR
GR
GS
[0.75 0 0 0.75 0 0] CT
0.149 GC
2 setlinecap
1 LJ
1.333 LW
N
67 235 M
67 33 L
S
GR
GS
[0.75 0 0 0.75 0 0] CT
0.149 GC
2 setlinecap
1 LJ
1.333 LW
N
346 235 M
346 33 L
S
GR
GS
[0.75 0 0 0.75 0 0] CT
0.149 GC
2 setlinecap
1 LJ
1.333 LW
N
67 235 M
69.79 235 L
S
GR
GS
[0.75 0 0 0.75 0 0] CT
0.149 GC
2 setlinecap
1 LJ
1.333 LW
N
67 194.6 M
69.79 194.6 L
S
GR
GS
[0.75 0 0 0.75 0 0] CT
0.149 GC
2 setlinecap
1 LJ
1.333 LW
N
67 154.2 M
69.79 154.2 L
S
GR
GS
[0.75 0 0 0.75 0 0] CT
0.149 GC
2 setlinecap
1 LJ
1.333 LW
N
67 113.8 M
69.79 113.8 L
S
GR
GS
[0.75 0 0 0.75 0 0] CT
0.149 GC
2 setlinecap
1 LJ
1.333 LW
N
67 73.4 M
69.79 73.4 L
S
GR
GS
[0.75 0 0 0.75 0 0] CT
0.149 GC
2 setlinecap
1 LJ
1.333 LW
N
67 33 M
69.79 33 L
S
GR
GS
[0.75 0 0 0.75 0 0] CT
0.149 GC
2 setlinecap
1 LJ
1.333 LW
N
346 235 M
343.21 235 L
S
GR
GS
[0.75 0 0 0.75 0 0] CT
0.149 GC
2 setlinecap
1 LJ
1.333 LW
N
346 194.6 M
343.21 194.6 L
S
GR
GS
[0.75 0 0 0.75 0 0] CT
0.149 GC
2 setlinecap
1 LJ
1.333 LW
N
346 154.2 M
343.21 154.2 L
S
GR
GS
[0.75 0 0 0.75 0 0] CT
0.149 GC
2 setlinecap
1 LJ
1.333 LW
N
346 113.8 M
343.21 113.8 L
S
GR
GS
[0.75 0 0 0.75 0 0] CT
0.149 GC
2 setlinecap
1 LJ
1.333 LW
N
346 73.4 M
343.21 73.4 L
S
GR
GS
[0.75 0 0 0.75 0 0] CT
0.149 GC
2 setlinecap
1 LJ
1.333 LW
N
346 33 M
343.21 33 L
S
GR
GS
[0.75 0 0 0.75 46.65 176.24999] CT
0.149 GC
/Helvetica 10.667 F
GS
[1 0 0 1 0 0] CT
-16 4.5 moveto 
1 -1 scale
(3.2) t 
GR
GR
GS
[0.75 0 0 0.75 46.65 145.94998] CT
0.149 GC
/Helvetica 10.667 F
GS
[1 0 0 1 0 0] CT
-16 4.5 moveto 
1 -1 scale
(3.4) t 
GR
GR
GS
[0.75 0 0 0.75 46.65 115.65001] CT
0.149 GC
/Helvetica 10.667 F
GS
[1 0 0 1 0 0] CT
-16 4.5 moveto 
1 -1 scale
(3.6) t 
GR
GR
GS
[0.75 0 0 0.75 46.65 85.35001] CT
0.149 GC
/Helvetica 10.667 F
GS
[1 0 0 1 0 0] CT
-16 4.5 moveto 
1 -1 scale
(3.8) t 
GR
GR
GS
[0.75 0 0 0.75 46.65 55.05] CT
0.149 GC
/Helvetica 10.667 F
GS
[1 0 0 1 0 0] CT
-7 4.5 moveto 
1 -1 scale
(4) t 
GR
GR
GS
[0.75 0 0 0.75 46.65 24.75003] CT
0.149 GC
/Helvetica 10.667 F
GS
[1 0 0 1 0 0] CT
-16 4.5 moveto 
1 -1 scale
(4.2) t 
GR
GR
GS
[0 -0.75 0.75 0 31.65 100.49995] CT
0.149 GC
N
-56.969 -6.828 M
-56.969 -8.797 -55.914 -9.906 QT
-54.859 -11.016 -53.203 -11.016 QT
-52.109 -11.016 -51.234 -10.492 QT
-50.359 -9.969 -49.898 -9.039 QT
-49.438 -8.109 -49.438 -6.922 QT
-49.438 -5.734 -49.922 -4.789 QT
-50.406 -3.844 -51.289 -3.352 QT
-52.172 -2.859 -53.203 -2.859 QT
-54.313 -2.859 -55.188 -3.398 QT
-56.063 -3.938 -56.516 -4.867 QT
-56.969 -5.797 -56.969 -6.828 QT
cp
-55.891 -6.813 M
-55.891 -5.391 -55.125 -4.57 QT
-54.359 -3.75 -53.203 -3.75 QT
-52.031 -3.75 -51.273 -4.578 QT
-50.516 -5.406 -50.516 -6.938 QT
-50.516 -7.891 -50.836 -8.609 QT
-51.156 -9.328 -51.781 -9.719 QT
-52.406 -10.109 -53.188 -10.109 QT
-54.297 -10.109 -55.094 -9.352 QT
-55.891 -8.594 -55.891 -6.813 QT
cp
-42.742 -5.766 M
-41.696 -5.5 L
-42.024 -4.219 -42.875 -3.539 QT
-43.727 -2.859 -44.961 -2.859 QT
-46.242 -2.859 -47.039 -3.383 QT
-47.836 -3.906 -48.25 -4.891 QT
-48.664 -5.875 -48.664 -7 QT
-48.664 -8.219 -48.196 -9.141 QT
-47.727 -10.063 -46.86 -10.539 QT
-45.992 -11.016 -44.946 -11.016 QT
-43.758 -11.016 -42.953 -10.414 QT
-42.149 -9.813 -41.836 -8.719 QT
-42.867 -8.469 L
-43.133 -9.328 -43.657 -9.719 QT
-44.18 -10.109 -44.961 -10.109 QT
-45.883 -10.109 -46.492 -9.68 QT
-47.102 -9.25 -47.344 -8.516 QT
-47.586 -7.781 -47.586 -7 QT
-47.586 -6 -47.297 -5.25 QT
-47.008 -4.5 -46.391 -4.125 QT
-45.774 -3.75 -45.055 -3.75 QT
-44.18 -3.75 -43.571 -4.258 QT
-42.961 -4.766 -42.742 -5.766 QT
cp
-38.422 -3 M
-41.469 -10.875 L
-40.344 -10.875 L
-38.297 -5.156 L
-38.047 -4.469 -37.875 -3.859 QT
-37.703 -4.516 -37.453 -5.156 QT
-35.328 -10.875 L
-34.266 -10.875 L
-37.344 -3 L
-38.422 -3 L
cp
-28.869 -0.688 M
-29.682 -1.688 -30.229 -3.047 QT
-30.775 -4.406 -30.775 -5.859 QT
-30.775 -7.125 -30.369 -8.297 QT
-29.885 -9.656 -28.869 -11.016 QT
-28.182 -11.016 L
-28.838 -9.891 -29.041 -9.406 QT
-29.369 -8.672 -29.557 -7.859 QT
-29.791 -6.859 -29.791 -5.844 QT
-29.791 -3.266 -28.182 -0.688 QT
-28.869 -0.688 L
cp
-24.805 -3 M
-27.852 -10.875 L
-26.727 -10.875 L
-24.68 -5.156 L
-24.43 -4.469 -24.258 -3.859 QT
-24.086 -4.516 -23.836 -5.156 QT
-21.711 -10.875 L
-20.649 -10.875 L
-23.727 -3 L
-24.805 -3 L
cp
-19.432 -0.688 M
-20.119 -0.688 L
-18.525 -3.266 -18.525 -5.844 QT
-18.525 -6.859 -18.744 -7.844 QT
-18.932 -8.656 -19.26 -9.391 QT
-19.463 -9.875 -20.119 -11.016 QT
-19.432 -11.016 L
-18.416 -9.656 -17.932 -8.297 QT
-17.525 -7.125 -17.525 -5.859 QT
-17.525 -4.406 -18.08 -3.047 QT
-18.635 -1.688 -19.432 -0.688 QT
cp
-7.813 -5.766 M
-6.766 -5.5 L
-7.094 -4.219 -7.946 -3.539 QT
-8.797 -2.859 -10.032 -2.859 QT
-11.313 -2.859 -12.11 -3.383 QT
-12.907 -3.906 -13.321 -4.891 QT
-13.735 -5.875 -13.735 -7 QT
-13.735 -8.219 -13.266 -9.141 QT
-12.797 -10.063 -11.93 -10.539 QT
-11.063 -11.016 -10.016 -11.016 QT
-8.829 -11.016 -8.024 -10.414 QT
-7.219 -9.813 -6.907 -8.719 QT
-7.938 -8.469 L
-8.204 -9.328 -8.727 -9.719 QT
-9.251 -10.109 -10.032 -10.109 QT
-10.954 -10.109 -11.563 -9.68 QT
-12.172 -9.25 -12.415 -8.516 QT
-12.657 -7.781 -12.657 -7 QT
-12.657 -6 -12.368 -5.25 QT
-12.079 -4.5 -11.462 -4.125 QT
-10.844 -3.75 -10.126 -3.75 QT
-9.251 -3.75 -8.641 -4.258 QT
-8.032 -4.766 -7.813 -5.766 QT
cp
-1.961 -4.844 M
-0.961 -4.719 L
-1.196 -3.844 -1.836 -3.359 QT
-2.477 -2.875 -3.461 -2.875 QT
-4.711 -2.875 -5.446 -3.641 QT
-6.18 -4.406 -6.18 -5.797 QT
-6.18 -7.25 -5.438 -8.039 QT
-4.696 -8.828 -3.524 -8.828 QT
-2.367 -8.828 -1.649 -8.055 QT
-0.93 -7.281 -0.93 -5.859 QT
-0.93 -5.781 -0.93 -5.609 QT
-5.18 -5.609 L
-5.133 -4.672 -4.657 -4.172 QT
-4.18 -3.672 -3.461 -3.672 QT
-2.93 -3.672 -2.555 -3.945 QT
-2.18 -4.219 -1.961 -4.844 QT
cp
-5.133 -6.406 M
-1.946 -6.406 L
-2.008 -7.125 -2.305 -7.484 QT
-2.774 -8.031 -3.508 -8.031 QT
-4.18 -8.031 -4.633 -7.586 QT
-5.086 -7.141 -5.133 -6.406 QT
cp
0.043 -3 M
0.043 -10.875 L
1.012 -10.875 L
1.012 -3 L
0.043 -3 L
cp
2.411 -3 M
2.411 -10.875 L
3.38 -10.875 L
3.38 -3 L
2.411 -3 L
cp
7.489 -5.063 M
8.505 -5.156 L
8.614 -4.406 9.028 -4.031 QT
9.442 -3.656 10.02 -3.656 QT
10.723 -3.656 11.208 -4.188 QT
11.692 -4.719 11.692 -5.578 QT
11.692 -6.406 11.223 -6.883 QT
10.755 -7.359 10.005 -7.359 QT
9.536 -7.359 9.161 -7.148 QT
8.786 -6.938 8.567 -6.609 QT
7.661 -6.719 L
8.426 -10.766 L
12.348 -10.766 L
12.348 -9.844 L
9.208 -9.844 L
8.77 -7.734 L
9.489 -8.219 10.27 -8.219 QT
11.301 -8.219 12.005 -7.508 QT
12.708 -6.797 12.708 -5.672 QT
12.708 -4.594 12.083 -3.828 QT
11.333 -2.859 10.02 -2.859 QT
8.942 -2.859 8.262 -3.461 QT
7.583 -4.063 7.489 -5.063 QT
cp
20.376 -3.703 M
19.829 -3.25 19.337 -3.063 QT
18.845 -2.875 18.267 -2.875 QT
17.329 -2.875 16.821 -3.336 QT
16.314 -3.797 16.314 -4.5 QT
16.314 -4.922 16.509 -5.266 QT
16.704 -5.609 17.009 -5.82 QT
17.314 -6.031 17.704 -6.141 QT
17.986 -6.219 18.564 -6.281 QT
19.736 -6.422 20.282 -6.625 QT
20.298 -6.813 20.298 -6.875 QT
20.298 -7.469 20.017 -7.703 QT
19.657 -8.031 18.923 -8.031 QT
18.236 -8.031 17.915 -7.797 QT
17.595 -7.563 17.439 -6.953 QT
16.486 -7.078 L
16.611 -7.688 16.907 -8.063 QT
17.204 -8.438 17.767 -8.633 QT
18.329 -8.828 19.064 -8.828 QT
19.798 -8.828 20.251 -8.656 QT
20.704 -8.484 20.915 -8.227 QT
21.126 -7.969 21.22 -7.578 QT
21.267 -7.328 21.267 -6.672 QT
21.267 -5.391 L
21.267 -4.047 21.329 -3.688 QT
21.392 -3.328 21.579 -3 QT
20.564 -3 L
20.407 -3.297 20.376 -3.703 QT
cp
20.282 -5.859 M
19.767 -5.641 18.704 -5.5 QT
18.111 -5.406 17.868 -5.305 QT
17.626 -5.203 17.486 -4.992 QT
17.345 -4.781 17.345 -4.531 QT
17.345 -4.141 17.642 -3.883 QT
17.939 -3.625 18.501 -3.625 QT
19.064 -3.625 19.493 -3.875 QT
19.923 -4.125 20.142 -4.547 QT
20.282 -4.875 20.282 -5.516 QT
20.282 -5.859 L
cp
24.693 -3.859 M
24.818 -3.016 L
24.412 -2.922 24.1 -2.922 QT
23.568 -2.922 23.279 -3.094 QT
22.99 -3.266 22.873 -3.531 QT
22.756 -3.797 22.756 -4.672 QT
22.756 -7.953 L
22.037 -7.953 L
22.037 -8.703 L
22.756 -8.703 L
22.756 -10.109 L
23.709 -10.703 L
23.709 -8.703 L
24.693 -8.703 L
24.693 -7.953 L
23.709 -7.953 L
23.709 -4.609 L
23.709 -4.203 23.764 -4.086 QT
23.818 -3.969 23.935 -3.898 QT
24.053 -3.828 24.256 -3.828 QT
24.428 -3.828 24.693 -3.859 QT
cp
31.333 -3 M
31.333 -4.891 L
27.911 -4.891 L
27.911 -5.766 L
31.505 -10.875 L
32.286 -10.875 L
32.286 -5.766 L
33.365 -5.766 L
33.365 -4.891 L
32.286 -4.891 L
32.286 -3 L
31.333 -3 L
cp
31.333 -5.766 M
31.333 -9.328 L
28.865 -5.766 L
31.333 -5.766 L
cp
34.15 -6.891 M
34.15 -8.281 34.439 -9.133 QT
34.729 -9.984 35.299 -10.445 QT
35.869 -10.906 36.729 -10.906 QT
37.354 -10.906 37.83 -10.648 QT
38.307 -10.391 38.619 -9.914 QT
38.932 -9.438 39.111 -8.742 QT
39.291 -8.047 39.291 -6.891 QT
39.291 -5.5 39.002 -4.648 QT
38.713 -3.797 38.15 -3.328 QT
37.588 -2.859 36.729 -2.859 QT
35.588 -2.859 34.932 -3.688 QT
34.15 -4.672 34.15 -6.891 QT
cp
35.15 -6.891 M
35.15 -4.938 35.604 -4.297 QT
36.057 -3.656 36.729 -3.656 QT
37.385 -3.656 37.838 -4.305 QT
38.291 -4.953 38.291 -6.891 QT
38.291 -8.828 37.838 -9.469 QT
37.385 -10.109 36.713 -10.109 QT
36.041 -10.109 35.65 -9.547 QT
35.15 -8.828 35.15 -6.891 QT
cp
43.459 -10.188 M
43.459 -10.578 43.741 -10.859 QT
44.022 -11.141 44.428 -11.141 QT
44.819 -11.141 45.1 -10.859 QT
45.381 -10.578 45.381 -10.172 QT
45.381 -9.75 45.1 -9.469 QT
44.819 -9.188 44.428 -9.188 QT
44.022 -9.188 43.741 -9.469 QT
43.459 -9.75 43.459 -10.188 QT
cp
43.866 -10.188 M
43.866 -9.922 44.03 -9.75 QT
44.194 -9.578 44.428 -9.578 QT
44.663 -9.578 44.834 -9.75 QT
45.006 -9.922 45.006 -10.172 QT
45.006 -10.406 44.834 -10.578 QT
44.663 -10.75 44.428 -10.75 QT
44.194 -10.75 44.03 -10.586 QT
43.866 -10.422 43.866 -10.188 QT
cp
52.602 -5.766 M
53.649 -5.5 L
53.321 -4.219 52.469 -3.539 QT
51.617 -2.859 50.383 -2.859 QT
49.102 -2.859 48.305 -3.383 QT
47.508 -3.906 47.094 -4.891 QT
46.68 -5.875 46.68 -7 QT
46.68 -8.219 47.149 -9.141 QT
47.617 -10.063 48.485 -10.539 QT
49.352 -11.016 50.399 -11.016 QT
51.586 -11.016 52.391 -10.414 QT
53.196 -9.813 53.508 -8.719 QT
52.477 -8.469 L
52.211 -9.328 51.688 -9.719 QT
51.164 -10.109 50.383 -10.109 QT
49.461 -10.109 48.852 -9.68 QT
48.242 -9.25 48 -8.516 QT
47.758 -7.781 47.758 -7 QT
47.758 -6 48.047 -5.25 QT
48.336 -4.5 48.953 -4.125 QT
49.571 -3.75 50.289 -3.75 QT
51.164 -3.75 51.774 -4.258 QT
52.383 -4.766 52.602 -5.766 QT
cp
f
GR
GS
[0.75 0 0 0.75 0 0] CT
0 0.447 0.741 RC
1 LJ
2.667 LW
N
67 36.838 M
78.16 37.04 L
89.32 37.04 L
100.48 37.242 L
111.64 37.444 L
122.8 37.646 L
133.96 37.848 L
145.12 37.848 L
156.28 38.05 L
167.44 38.454 L
178.6 38.656 L
189.76 38.858 L
200.92 39.06 L
212.08 39.464 L
223.24 39.666 L
234.4 39.666 L
245.56 39.868 L
256.72 40.07 L
267.88 40.272 L
279.04 40.272 L
290.2 40.474 L
301.36 40.676 L
312.52 40.878 L
S
GR
GS
[0.75 0 0 0.75 0 0] CT
0.851 0.325 0.098 RC
1 LJ
2.667 LW
N
67 61.28 M
78.16 62.492 L
89.32 62.694 L
100.48 62.896 L
111.64 63.098 L
122.8 63.3 L
133.96 63.3 L
145.12 63.3 L
156.28 63.502 L
167.44 63.704 L
178.6 63.906 L
189.76 64.108 L
200.92 64.31 L
212.08 64.512 L
223.24 64.714 L
234.4 64.714 L
245.56 64.916 L
256.72 64.916 L
267.88 64.714 L
279.04 64.714 L
290.2 64.512 L
301.36 64.31 L
312.52 64.108 L
S
GR
GS
[0.75 0 0 0.75 0 0] CT
0.929 0.694 0.125 RC
1 LJ
2.667 LW
N
67 82.086 M
78.16 84.106 L
89.32 84.51 L
100.48 84.712 L
111.64 84.914 L
122.8 85.116 L
133.96 85.116 L
145.12 85.116 L
156.28 85.318 L
167.44 85.318 L
178.6 85.52 L
189.76 85.722 L
200.92 85.722 L
212.08 85.924 L
223.24 85.924 L
234.4 85.924 L
245.56 85.924 L
256.72 85.722 L
267.88 85.722 L
279.04 85.318 L
290.2 84.914 L
301.36 84.51 L
312.52 84.106 L
S
GR
GS
[0.75 0 0 0.75 0 0] CT
0.494 0.184 0.557 RC
1 LJ
2.667 LW
N
67 100.468 M
78.16 103.094 L
89.32 103.902 L
100.48 104.306 L
111.64 104.508 L
122.8 104.71 L
133.96 104.71 L
145.12 104.912 L
156.28 105.114 L
167.44 105.316 L
178.6 105.518 L
189.76 105.72 L
200.92 105.922 L
212.08 106.124 L
223.24 106.528 L
234.4 106.326 L
245.56 106.528 L
256.72 106.326 L
267.88 106.124 L
279.04 105.518 L
290.2 105.114 L
301.36 104.508 L
312.52 103.7 L
S
GR
GS
[0.75 0 0 0.75 0 0] CT
0.467 0.675 0.188 RC
1 LJ
2.667 LW
N
67 119.86 M
78.16 123.496 L
89.32 124.304 L
100.48 124.91 L
111.64 125.314 L
122.8 125.516 L
133.96 125.718 L
145.12 125.718 L
156.28 125.92 L
167.44 125.92 L
178.6 126.122 L
189.76 126.122 L
200.92 126.122 L
212.08 126.122 L
223.24 126.122 L
234.4 125.92 L
245.56 125.92 L
256.72 125.516 L
267.88 125.112 L
279.04 124.506 L
290.2 123.9 L
301.36 123.092 L
312.52 121.88 L
S
GR
GS
[0.75 0 0 0.75 0 0] CT
0.302 0.745 0.933 RC
1 LJ
2.667 LW
N
67 132.99 M
78.16 135.818 L
89.32 136.626 L
100.48 137.03 L
111.64 137.232 L
122.8 137.434 L
133.96 137.434 L
145.12 137.636 L
156.28 137.636 L
167.44 137.838 L
178.6 137.838 L
189.76 137.838 L
200.92 137.838 L
212.08 137.838 L
223.24 137.838 L
234.4 137.838 L
245.56 137.636 L
256.72 137.434 L
267.88 137.03 L
279.04 136.626 L
290.2 136.02 L
301.36 135.414 L
312.52 134.606 L
S
GR
GS
[0.75 0 0 0.75 0 0] CT
0.635 0.078 0.184 RC
1 LJ
2.667 LW
N
67 141.07 M
78.16 143.292 L
89.32 143.898 L
100.48 144.302 L
111.64 144.504 L
122.8 144.706 L
133.96 144.706 L
145.12 144.908 L
156.28 144.908 L
167.44 145.11 L
178.6 145.11 L
189.76 145.11 L
200.92 145.312 L
212.08 145.11 L
223.24 145.11 L
234.4 145.11 L
245.56 145.11 L
256.72 144.908 L
267.88 144.706 L
279.04 144.504 L
290.2 144.1 L
301.36 143.696 L
312.52 143.292 L
S
GR
GS
[0.75 0 0 0.75 0 0] CT
0 0.447 0.741 RC
1 LJ
2.667 LW
N
67 147.13 M
78.16 149.15 L
89.32 149.756 L
100.48 150.362 L
111.64 150.968 L
122.8 151.17 L
133.96 151.574 L
145.12 151.776 L
156.28 151.978 L
167.44 151.978 L
178.6 152.18 L
189.76 152.382 L
200.92 152.382 L
212.08 152.382 L
223.24 152.584 L
234.4 152.382 L
245.56 152.382 L
256.72 152.382 L
267.88 152.18 L
279.04 151.978 L
290.2 151.574 L
301.36 151.17 L
312.52 150.766 L
S
GR
GS
[0.75 0 0 0.75 0 0] CT
0.851 0.325 0.098 RC
1 LJ
2.667 LW
N
67 156.624 M
78.16 160.26 L
89.32 161.674 L
100.48 162.28 L
111.64 162.886 L
122.8 163.29 L
133.96 163.492 L
145.12 163.694 L
156.28 163.896 L
167.44 163.896 L
178.6 164.098 L
189.76 164.3 L
200.92 164.3 L
212.08 164.098 L
223.24 164.098 L
234.4 164.098 L
245.56 164.098 L
256.72 163.694 L
267.88 163.492 L
279.04 163.29 L
290.2 162.886 L
301.36 162.684 L
312.52 162.078 L
S
GR
GS
[0.75 0 0 0.75 0 0] CT
0.929 0.694 0.125 RC
1 LJ
2.667 LW
N
67 167.936 M
78.16 172.784 L
89.32 174.602 L
100.48 175.612 L
111.64 176.42 L
122.8 176.622 L
133.96 177.026 L
145.12 177.026 L
156.28 177.026 L
167.44 177.026 L
178.6 177.228 L
189.76 177.228 L
200.92 177.026 L
212.08 176.824 L
223.24 176.824 L
234.4 176.622 L
245.56 176.622 L
256.72 176.218 L
267.88 176.016 L
279.04 175.612 L
290.2 175.208 L
301.36 174.804 L
312.52 174.4 L
S
GR
GS
[0.75 0 0 0.75 0 0] CT
0.494 0.184 0.557 RC
1 LJ
2.667 LW
N
67 182.682 M
78.16 193.186 L
89.32 202.074 L
100.48 208.336 L
111.64 213.588 L
122.8 216.416 L
133.96 218.638 L
145.12 219.244 L
156.28 219.648 L
167.44 218.436 L
178.6 218.84 L
189.76 218.032 L
200.92 216.82 L
212.08 214.396 L
223.24 215.002 L
234.4 213.184 L
245.56 212.578 L
256.72 211.164 L
267.88 210.154 L
279.04 208.74 L
290.2 207.124 L
301.36 205.71 L
312.52 204.296 L
S
GR
GS
[0.75 0 0 0.75 0 0] CT
1 GC
N
372 221 M
372 47 L
465 47 L
465 221 L
cp
f
GR
GS
[0.75 0 0 0.75 306.75 42.375] CT
/Helvetica 10.667 F
GS
[1 0 0 1 0 0] CT
0 4.5 moveto 
1 -1 scale
(100%SOC) t 
GR
GR
GS
[0.75 0 0 0.75 0 0] CT
0 0.447 0.741 RC
1 LJ
2.667 LW
N
376 56.5 M
406 56.5 L
S
GR
GS
[0.75 0 0 0.75 306.75 54.00001] CT
/Helvetica 10.667 F
GS
[1 0 0 1 0 0] CT
0 4.5 moveto 
1 -1 scale
(90%SOC) t 
GR
GR
GS
[0.75 0 0 0.75 0 0] CT
0.851 0.325 0.098 RC
1 LJ
2.667 LW
N
376 72 M
406 72 L
S
GR
GS
[0.75 0 0 0.75 306.75 65.625] CT
/Helvetica 10.667 F
GS
[1 0 0 1 0 0] CT
0 4.5 moveto 
1 -1 scale
(80%SOC) t 
GR
GR
GS
[0.75 0 0 0.75 0 0] CT
0.929 0.694 0.125 RC
1 LJ
2.667 LW
N
376 87.5 M
406 87.5 L
S
GR
GS
[0.75 0 0 0.75 306.75 77.25] CT
/Helvetica 10.667 F
GS
[1 0 0 1 0 0] CT
0 4.5 moveto 
1 -1 scale
(70%SOC) t 
GR
GR
GS
[0.75 0 0 0.75 0 0] CT
0.494 0.184 0.557 RC
1 LJ
2.667 LW
N
376 103 M
406 103 L
S
GR
GS
[0.75 0 0 0.75 306.75 88.875] CT
/Helvetica 10.667 F
GS
[1 0 0 1 0 0] CT
0 4.5 moveto 
1 -1 scale
(60%SOC) t 
GR
GR
GS
[0.75 0 0 0.75 0 0] CT
0.467 0.675 0.188 RC
1 LJ
2.667 LW
N
376 118.5 M
406 118.5 L
S
GR
GS
[0.75 0 0 0.75 306.75 100.5] CT
/Helvetica 10.667 F
GS
[1 0 0 1 0 0] CT
0 4.5 moveto 
1 -1 scale
(50%SOC) t 
GR
GR
GS
[0.75 0 0 0.75 0 0] CT
0.302 0.745 0.933 RC
1 LJ
2.667 LW
N
376 134 M
406 134 L
S
GR
GS
[0.75 0 0 0.75 306.75 112.125] CT
/Helvetica 10.667 F
GS
[1 0 0 1 0 0] CT
0 4.5 moveto 
1 -1 scale
(40%SOC) t 
GR
GR
GS
[0.75 0 0 0.75 0 0] CT
0.635 0.078 0.184 RC
1 LJ
2.667 LW
N
376 149.5 M
406 149.5 L
S
GR
GS
[0.75 0 0 0.75 306.75 123.75] CT
/Helvetica 10.667 F
GS
[1 0 0 1 0 0] CT
0 4.5 moveto 
1 -1 scale
(30%SOC) t 
GR
GR
GS
[0.75 0 0 0.75 0 0] CT
0 0.447 0.741 RC
1 LJ
2.667 LW
N
376 165 M
406 165 L
S
GR
GS
[0.75 0 0 0.75 306.75 135.375] CT
/Helvetica 10.667 F
GS
[1 0 0 1 0 0] CT
0 4.5 moveto 
1 -1 scale
(20%SOC) t 
GR
GR
GS
[0.75 0 0 0.75 0 0] CT
0.851 0.325 0.098 RC
1 LJ
2.667 LW
N
376 180.5 M
406 180.5 L
S
GR
GS
[0.75 0 0 0.75 306.75 147] CT
/Helvetica 10.667 F
GS
[1 0 0 1 0 0] CT
0 4.5 moveto 
1 -1 scale
(10%SOC) t 
GR
GR
GS
[0.75 0 0 0.75 0 0] CT
0.929 0.694 0.125 RC
1 LJ
2.667 LW
N
376 196 M
406 196 L
S
GR
GS
[0.75 0 0 0.75 306.75 158.625] CT
/Helvetica 10.667 F
GS
[1 0 0 1 0 0] CT
0 4.5 moveto 
1 -1 scale
(0%SOC) t 
GR
GR
GS
[0.75 0 0 0.75 0 0] CT
0.494 0.184 0.557 RC
1 LJ
2.667 LW
N
376 211.5 M
406 211.5 L
S
GR
GS
[0.75 0 0 0.75 0 0] CT
0.149 GC
10.0 ML
0.667 LW
N
372 221 M
372 47 L
465 47 L
465 221 L
cp
S
GR
%%Trailer
%%Pages: 1
%%EOF
