%!PS-Adobe-3.0 EPSF-3.0
%%Creator: (MATLAB, The Mathworks, Inc. Version 9.0.0.341360 \(R2016a\). Operating System: Windows 7)
%%Title: (C:/Users/kamyar.makinejad/Dropbox/TUM-CREATE/Paper with RP3/IEEEtran/plots/Cell3_OCV.eps)
%%CreationDate: 2016-03-30T16:53:53
%%Pages: (atend)
%%BoundingBox: 0 0 576 432
%%LanguageLevel: 3
%%EndComments
%%BeginProlog
%%BeginResource: procset (Apache XML Graphics Std ProcSet) 1.2 0
%%Version: 1.2 0
%%Copyright: (Copyright 2001-2003,2010 The Apache Software Foundation. License terms: http://www.apache.org/licenses/LICENSE-2.0)
/bd{bind def}bind def
/ld{load def}bd
/GR/grestore ld
/M/moveto ld
/LJ/setlinejoin ld
/C/curveto ld
/f/fill ld
/LW/setlinewidth ld
/GC/setgray ld
/t/show ld
/N/newpath ld
/CT/concat ld
/cp/closepath ld
/S/stroke ld
/L/lineto ld
/CC/setcmykcolor ld
/A/ashow ld
/GS/gsave ld
/RC/setrgbcolor ld
/RM/rmoveto ld
/ML/setmiterlimit ld
/re {4 2 roll M
1 index 0 rlineto
0 exch rlineto
neg 0 rlineto
cp } bd
/_ctm matrix def
/_tm matrix def
/BT { _ctm currentmatrix pop matrix _tm copy pop 0 0 moveto } bd
/ET { _ctm setmatrix } bd
/iTm { _ctm setmatrix _tm concat } bd
/Tm { _tm astore pop iTm 0 0 moveto } bd
/ux 0.0 def
/uy 0.0 def
/F {
  /Tp exch def
  /Tf exch def
  Tf findfont Tp scalefont setfont
  /cf Tf def  /cs Tp def
} bd
/ULS {currentpoint /uy exch def /ux exch def} bd
/ULE {
  /Tcx currentpoint pop def
  gsave
  newpath
  cf findfont cs scalefont dup
  /FontMatrix get 0 get /Ts exch def /FontInfo get dup
  /UnderlinePosition get Ts mul /To exch def
  /UnderlineThickness get Ts mul /Tt exch def
  ux uy To add moveto  Tcx uy To add lineto
  Tt setlinewidth stroke
  grestore
} bd
/OLE {
  /Tcx currentpoint pop def
  gsave
  newpath
  cf findfont cs scalefont dup
  /FontMatrix get 0 get /Ts exch def /FontInfo get dup
  /UnderlinePosition get Ts mul /To exch def
  /UnderlineThickness get Ts mul /Tt exch def
  ux uy To add cs add moveto Tcx uy To add cs add lineto
  Tt setlinewidth stroke
  grestore
} bd
/SOE {
  /Tcx currentpoint pop def
  gsave
  newpath
  cf findfont cs scalefont dup
  /FontMatrix get 0 get /Ts exch def /FontInfo get dup
  /UnderlinePosition get Ts mul /To exch def
  /UnderlineThickness get Ts mul /Tt exch def
  ux uy To add cs 10 mul 26 idiv add moveto Tcx uy To add cs 10 mul 26 idiv add lineto
  Tt setlinewidth stroke
  grestore
} bd
/QT {
/Y22 exch store
/X22 exch store
/Y21 exch store
/X21 exch store
currentpoint
/Y21 load 2 mul add 3 div exch
/X21 load 2 mul add 3 div exch
/X21 load 2 mul /X22 load add 3 div
/Y21 load 2 mul /Y22 load add 3 div
/X22 load /Y22 load curveto
} bd
/SSPD {
dup length /d exch dict def
{
/v exch def
/k exch def
currentpagedevice k known {
/cpdv currentpagedevice k get def
v cpdv ne {
/upd false def
/nullv v type /nulltype eq def
/nullcpdv cpdv type /nulltype eq def
nullv nullcpdv or
{
/upd true def
} {
/sametype v type cpdv type eq def
sametype {
v type /arraytype eq {
/vlen v length def
/cpdvlen cpdv length def
vlen cpdvlen eq {
0 1 vlen 1 sub {
/i exch def
/obj v i get def
/cpdobj cpdv i get def
obj cpdobj ne {
/upd true def
exit
} if
} for
} {
/upd true def
} ifelse
} {
v type /dicttype eq {
v {
/dv exch def
/dk exch def
/cpddv cpdv dk get def
dv cpddv ne {
/upd true def
exit
} if
} forall
} {
/upd true def
} ifelse
} ifelse
} if
} ifelse
upd true eq {
d k v put
} if
} if
} if
} forall
d length 0 gt {
d setpagedevice
} if
} bd
%%EndResource
%%BeginResource: procset (Apache XML Graphics EPS ProcSet) 1.0 0
%%Version: 1.0 0
%%Copyright: (Copyright 2002-2003 The Apache Software Foundation. License terms: http://www.apache.org/licenses/LICENSE-2.0)
/BeginEPSF { %def
/b4_Inc_state save def         % Save state for cleanup
/dict_count countdictstack def % Count objects on dict stack
/op_count count 1 sub def      % Count objects on operand stack
userdict begin                 % Push userdict on dict stack
/showpage { } def              % Redefine showpage, { } = null proc
0 setgray 0 setlinecap         % Prepare graphics state
1 setlinewidth 0 setlinejoin
10 setmiterlimit [ ] 0 setdash newpath
/languagelevel where           % If level not equal to 1 then
{pop languagelevel             % set strokeadjust and
1 ne                           % overprint to their defaults.
{false setstrokeadjust false setoverprint
} if
} if
} bd
/EndEPSF { %def
count op_count sub {pop} repeat            % Clean up stacks
countdictstack dict_count sub {end} repeat
b4_Inc_state restore
} bd
%%EndResource
%FOPBeginFontDict
%%IncludeResource: font Courier-Bold
%%IncludeResource: font Helvetica
%%IncludeResource: font Courier-BoldOblique
%%IncludeResource: font Courier-Oblique
%%IncludeResource: font Times-Roman
%%IncludeResource: font Helvetica-BoldOblique
%%IncludeResource: font Helvetica-Bold
%%IncludeResource: font Helvetica-Oblique
%%IncludeResource: font Times-BoldItalic
%%IncludeResource: font Courier
%%IncludeResource: font Times-Italic
%%IncludeResource: font Times-Bold
%%IncludeResource: font Symbol
%%IncludeResource: font ZapfDingbats
%FOPEndFontDict
%%BeginResource: encoding WinAnsiEncoding
/WinAnsiEncoding [
/.notdef /.notdef /.notdef /.notdef /.notdef
/.notdef /.notdef /.notdef /.notdef /.notdef
/.notdef /.notdef /.notdef /.notdef /.notdef
/.notdef /.notdef /.notdef /.notdef /.notdef
/.notdef /.notdef /.notdef /.notdef /.notdef
/.notdef /.notdef /.notdef /.notdef /.notdef
/.notdef /.notdef /space /exclam /quotedbl
/numbersign /dollar /percent /ampersand /quotesingle
/parenleft /parenright /asterisk /plus /comma
/hyphen /period /slash /zero /one
/two /three /four /five /six
/seven /eight /nine /colon /semicolon
/less /equal /greater /question /at
/A /B /C /D /E
/F /G /H /I /J
/K /L /M /N /O
/P /Q /R /S /T
/U /V /W /X /Y
/Z /bracketleft /backslash /bracketright /asciicircum
/underscore /quoteleft /a /b /c
/d /e /f /g /h
/i /j /k /l /m
/n /o /p /q /r
/s /t /u /v /w
/x /y /z /braceleft /bar
/braceright /asciitilde /bullet /Euro /bullet
/quotesinglbase /florin /quotedblbase /ellipsis /dagger
/daggerdbl /circumflex /perthousand /Scaron /guilsinglleft
/OE /bullet /Zcaron /bullet /bullet
/quoteleft /quoteright /quotedblleft /quotedblright /bullet
/endash /emdash /asciitilde /trademark /scaron
/guilsinglright /oe /bullet /zcaron /Ydieresis
/space /exclamdown /cent /sterling /currency
/yen /brokenbar /section /dieresis /copyright
/ordfeminine /guillemotleft /logicalnot /sfthyphen /registered
/macron /degree /plusminus /twosuperior /threesuperior
/acute /mu /paragraph /middot /cedilla
/onesuperior /ordmasculine /guillemotright /onequarter /onehalf
/threequarters /questiondown /Agrave /Aacute /Acircumflex
/Atilde /Adieresis /Aring /AE /Ccedilla
/Egrave /Eacute /Ecircumflex /Edieresis /Igrave
/Iacute /Icircumflex /Idieresis /Eth /Ntilde
/Ograve /Oacute /Ocircumflex /Otilde /Odieresis
/multiply /Oslash /Ugrave /Uacute /Ucircumflex
/Udieresis /Yacute /Thorn /germandbls /agrave
/aacute /acircumflex /atilde /adieresis /aring
/ae /ccedilla /egrave /eacute /ecircumflex
/edieresis /igrave /iacute /icircumflex /idieresis
/eth /ntilde /ograve /oacute /ocircumflex
/otilde /odieresis /divide /oslash /ugrave
/uacute /ucircumflex /udieresis /yacute /thorn
/ydieresis
] def
%%EndResource
%FOPBeginFontReencode
/Courier-Bold findfont
dup length dict begin
  {1 index /FID ne {def} {pop pop} ifelse} forall
  /Encoding WinAnsiEncoding def
  currentdict
end
/Courier-Bold exch definefont pop
/Helvetica findfont
dup length dict begin
  {1 index /FID ne {def} {pop pop} ifelse} forall
  /Encoding WinAnsiEncoding def
  currentdict
end
/Helvetica exch definefont pop
/Courier-BoldOblique findfont
dup length dict begin
  {1 index /FID ne {def} {pop pop} ifelse} forall
  /Encoding WinAnsiEncoding def
  currentdict
end
/Courier-BoldOblique exch definefont pop
/Courier-Oblique findfont
dup length dict begin
  {1 index /FID ne {def} {pop pop} ifelse} forall
  /Encoding WinAnsiEncoding def
  currentdict
end
/Courier-Oblique exch definefont pop
/Times-Roman findfont
dup length dict begin
  {1 index /FID ne {def} {pop pop} ifelse} forall
  /Encoding WinAnsiEncoding def
  currentdict
end
/Times-Roman exch definefont pop
/Helvetica-BoldOblique findfont
dup length dict begin
  {1 index /FID ne {def} {pop pop} ifelse} forall
  /Encoding WinAnsiEncoding def
  currentdict
end
/Helvetica-BoldOblique exch definefont pop
/Helvetica-Bold findfont
dup length dict begin
  {1 index /FID ne {def} {pop pop} ifelse} forall
  /Encoding WinAnsiEncoding def
  currentdict
end
/Helvetica-Bold exch definefont pop
/Helvetica-Oblique findfont
dup length dict begin
  {1 index /FID ne {def} {pop pop} ifelse} forall
  /Encoding WinAnsiEncoding def
  currentdict
end
/Helvetica-Oblique exch definefont pop
/Times-BoldItalic findfont
dup length dict begin
  {1 index /FID ne {def} {pop pop} ifelse} forall
  /Encoding WinAnsiEncoding def
  currentdict
end
/Times-BoldItalic exch definefont pop
/Courier findfont
dup length dict begin
  {1 index /FID ne {def} {pop pop} ifelse} forall
  /Encoding WinAnsiEncoding def
  currentdict
end
/Courier exch definefont pop
/Times-Italic findfont
dup length dict begin
  {1 index /FID ne {def} {pop pop} ifelse} forall
  /Encoding WinAnsiEncoding def
  currentdict
end
/Times-Italic exch definefont pop
/Times-Bold findfont
dup length dict begin
  {1 index /FID ne {def} {pop pop} ifelse} forall
  /Encoding WinAnsiEncoding def
  currentdict
end
/Times-Bold exch definefont pop
%FOPEndFontReencode
%%EndProlog
%%Page: 1 1
%%PageBoundingBox: 0 0 576 432
%%BeginPageSetup
[1 0 0 -1 0 432] CT
%%EndPageSetup
GS
[0.75 0 0 0.75 0 0] CT
1 GC
N
0 0 768 576 re
f
GR
GS
[0.75 0 0 0.75 0 0] CT
1 GC
N
0 0 768 576 re
f
GR
GS
[0.75 0 0 0.75 0 0] CT
1 GC
N
66 234 M
345 234 L
345 34 L
66 34 L
cp
f
GR
GS
[0.75 0 0 0.75 0 0] CT
0.873 GC
1 LJ
0.667 LW
N
66 234 M
66 34 L
S
GR
GS
[0.75 0 0 0.75 0 0] CT
0.873 GC
1 LJ
0.667 LW
N
121.8 234 M
121.8 34 L
S
GR
GS
[0.75 0 0 0.75 0 0] CT
0.873 GC
1 LJ
0.667 LW
N
177.6 234 M
177.6 34 L
S
GR
GS
[0.75 0 0 0.75 0 0] CT
0.873 GC
1 LJ
0.667 LW
N
233.4 234 M
233.4 34 L
S
GR
GS
[0.75 0 0 0.75 0 0] CT
0.873 GC
1 LJ
0.667 LW
N
289.2 234 M
289.2 34 L
S
GR
GS
[0.75 0 0 0.75 0 0] CT
0.873 GC
1 LJ
0.667 LW
N
345 234 M
345 34 L
S
GR
GS
[0.75 0 0 0.75 0 0] CT
0.873 GC
1 LJ
0.667 LW
N
345 234 M
66 234 L
S
GR
GS
[0.75 0 0 0.75 0 0] CT
0.873 GC
1 LJ
0.667 LW
N
345 194 M
66 194 L
S
GR
GS
[0.75 0 0 0.75 0 0] CT
0.873 GC
1 LJ
0.667 LW
N
345 154 M
66 154 L
S
GR
GS
[0.75 0 0 0.75 0 0] CT
0.873 GC
1 LJ
0.667 LW
N
345 114 M
66 114 L
S
GR
GS
[0.75 0 0 0.75 0 0] CT
0.873 GC
1 LJ
0.667 LW
N
345 74 M
66 74 L
S
GR
GS
[0.75 0 0 0.75 0 0] CT
0.873 GC
1 LJ
0.667 LW
N
345 34 M
66 34 L
S
GR
GS
[0.75 0 0 0.75 0 0] CT
0.149 GC
2 setlinecap
1 LJ
1.333 LW
N
66 234 M
345 234 L
S
GR
GS
[0.75 0 0 0.75 0 0] CT
0.149 GC
2 setlinecap
1 LJ
1.333 LW
N
66 34 M
345 34 L
S
GR
GS
[0.75 0 0 0.75 0 0] CT
0.149 GC
2 setlinecap
1 LJ
1.333 LW
N
66 234 M
66 231.21 L
S
GR
GS
[0.75 0 0 0.75 0 0] CT
0.149 GC
2 setlinecap
1 LJ
1.333 LW
N
121.8 234 M
121.8 231.21 L
S
GR
GS
[0.75 0 0 0.75 0 0] CT
0.149 GC
2 setlinecap
1 LJ
1.333 LW
N
177.6 234 M
177.6 231.21 L
S
GR
GS
[0.75 0 0 0.75 0 0] CT
0.149 GC
2 setlinecap
1 LJ
1.333 LW
N
233.4 234 M
233.4 231.21 L
S
GR
GS
[0.75 0 0 0.75 0 0] CT
0.149 GC
2 setlinecap
1 LJ
1.333 LW
N
289.2 234 M
289.2 231.21 L
S
GR
GS
[0.75 0 0 0.75 0 0] CT
0.149 GC
2 setlinecap
1 LJ
1.333 LW
N
345 234 M
345 231.21 L
S
GR
GS
[0.75 0 0 0.75 0 0] CT
0.149 GC
2 setlinecap
1 LJ
1.333 LW
N
66 34 M
66 36.79 L
S
GR
GS
[0.75 0 0 0.75 0 0] CT
0.149 GC
2 setlinecap
1 LJ
1.333 LW
N
121.8 34 M
121.8 36.79 L
S
GR
GS
[0.75 0 0 0.75 0 0] CT
0.149 GC
2 setlinecap
1 LJ
1.333 LW
N
177.6 34 M
177.6 36.79 L
S
GR
GS
[0.75 0 0 0.75 0 0] CT
0.149 GC
2 setlinecap
1 LJ
1.333 LW
N
233.4 34 M
233.4 36.79 L
S
GR
GS
[0.75 0 0 0.75 0 0] CT
0.149 GC
2 setlinecap
1 LJ
1.333 LW
N
289.2 34 M
289.2 36.79 L
S
GR
GS
[0.75 0 0 0.75 0 0] CT
0.149 GC
2 setlinecap
1 LJ
1.333 LW
N
345 34 M
345 36.79 L
S
GR
GS
[0.75 0 0 0.75 49.5 179.09998] CT
0.149 GC
/Helvetica 10.667 F
GS
[1 0 0 1 0 0] CT
-3.5 12 moveto 
1 -1 scale
(0) t 
GR
GR
GS
[0.75 0 0 0.75 91.35 179.09998] CT
0.149 GC
/Helvetica 10.667 F
GS
[1 0 0 1 0 0] CT
-9.5 12 moveto 
1 -1 scale
(500) t 
GR
GR
GS
[0.75 0 0 0.75 133.2 179.09998] CT
0.149 GC
/Helvetica 10.667 F
GS
[1 0 0 1 0 0] CT
-12.5 12 moveto 
1 -1 scale
(1000) t 
GR
GR
GS
[0.75 0 0 0.75 175.05 179.09998] CT
0.149 GC
/Helvetica 10.667 F
GS
[1 0 0 1 0 0] CT
-12.5 12 moveto 
1 -1 scale
(1500) t 
GR
GR
GS
[0.75 0 0 0.75 216.90001 179.09998] CT
0.149 GC
/Helvetica 10.667 F
GS
[1 0 0 1 0 0] CT
-12.5 12 moveto 
1 -1 scale
(2000) t 
GR
GR
GS
[0.75 0 0 0.75 258.75 179.09998] CT
0.149 GC
/Helvetica 10.667 F
GS
[1 0 0 1 0 0] CT
-12.5 12 moveto 
1 -1 scale
(2500) t 
GR
GR
GS
[0.75 0 0 0.75 154.1251 190.86794] CT
0.149 GC
/Helvetica 10.667 F
GS
[1 0 0 1 0 0] CT
-17 12 moveto 
1 -1 scale
(Cycles) t 
GR
GR
GS
[0.75 0 0 0.75 0 0] CT
0.149 GC
2 setlinecap
1 LJ
1.333 LW
N
66 234 M
66 34 L
S
GR
GS
[0.75 0 0 0.75 0 0] CT
0.149 GC
2 setlinecap
1 LJ
1.333 LW
N
345 234 M
345 34 L
S
GR
GS
[0.75 0 0 0.75 0 0] CT
0.149 GC
2 setlinecap
1 LJ
1.333 LW
N
66 234 M
68.79 234 L
S
GR
GS
[0.75 0 0 0.75 0 0] CT
0.149 GC
2 setlinecap
1 LJ
1.333 LW
N
66 194 M
68.79 194 L
S
GR
GS
[0.75 0 0 0.75 0 0] CT
0.149 GC
2 setlinecap
1 LJ
1.333 LW
N
66 154 M
68.79 154 L
S
GR
GS
[0.75 0 0 0.75 0 0] CT
0.149 GC
2 setlinecap
1 LJ
1.333 LW
N
66 114 M
68.79 114 L
S
GR
GS
[0.75 0 0 0.75 0 0] CT
0.149 GC
2 setlinecap
1 LJ
1.333 LW
N
66 74 M
68.79 74 L
S
GR
GS
[0.75 0 0 0.75 0 0] CT
0.149 GC
2 setlinecap
1 LJ
1.333 LW
N
66 34 M
68.79 34 L
S
GR
GS
[0.75 0 0 0.75 0 0] CT
0.149 GC
2 setlinecap
1 LJ
1.333 LW
N
345 234 M
342.21 234 L
S
GR
GS
[0.75 0 0 0.75 0 0] CT
0.149 GC
2 setlinecap
1 LJ
1.333 LW
N
345 194 M
342.21 194 L
S
GR
GS
[0.75 0 0 0.75 0 0] CT
0.149 GC
2 setlinecap
1 LJ
1.333 LW
N
345 154 M
342.21 154 L
S
GR
GS
[0.75 0 0 0.75 0 0] CT
0.149 GC
2 setlinecap
1 LJ
1.333 LW
N
345 114 M
342.21 114 L
S
GR
GS
[0.75 0 0 0.75 0 0] CT
0.149 GC
2 setlinecap
1 LJ
1.333 LW
N
345 74 M
342.21 74 L
S
GR
GS
[0.75 0 0 0.75 0 0] CT
0.149 GC
2 setlinecap
1 LJ
1.333 LW
N
345 34 M
342.21 34 L
S
GR
GS
[0.75 0 0 0.75 45.9 175.49999] CT
0.149 GC
/Helvetica 10.667 F
GS
[1 0 0 1 0 0] CT
-16 4.5 moveto 
1 -1 scale
(3.2) t 
GR
GR
GS
[0.75 0 0 0.75 45.9 145.49999] CT
0.149 GC
/Helvetica 10.667 F
GS
[1 0 0 1 0 0] CT
-16 4.5 moveto 
1 -1 scale
(3.4) t 
GR
GR
GS
[0.75 0 0 0.75 45.9 115.50001] CT
0.149 GC
/Helvetica 10.667 F
GS
[1 0 0 1 0 0] CT
-16 4.5 moveto 
1 -1 scale
(3.6) t 
GR
GR
GS
[0.75 0 0 0.75 45.9 85.50001] CT
0.149 GC
/Helvetica 10.667 F
GS
[1 0 0 1 0 0] CT
-16 4.5 moveto 
1 -1 scale
(3.8) t 
GR
GR
GS
[0.75 0 0 0.75 45.9 55.5] CT
0.149 GC
/Helvetica 10.667 F
GS
[1 0 0 1 0 0] CT
-7 4.5 moveto 
1 -1 scale
(4) t 
GR
GR
GS
[0.75 0 0 0.75 45.9 25.50003] CT
0.149 GC
/Helvetica 10.667 F
GS
[1 0 0 1 0 0] CT
-16 4.5 moveto 
1 -1 scale
(4.2) t 
GR
GR
GS
[0 -0.75 0.75 0 30.9 100.49995] CT
0.149 GC
N
-56.969 -6.828 M
-56.969 -8.797 -55.914 -9.906 QT
-54.859 -11.016 -53.203 -11.016 QT
-52.109 -11.016 -51.234 -10.492 QT
-50.359 -9.969 -49.898 -9.039 QT
-49.438 -8.109 -49.438 -6.922 QT
-49.438 -5.734 -49.922 -4.789 QT
-50.406 -3.844 -51.289 -3.352 QT
-52.172 -2.859 -53.203 -2.859 QT
-54.313 -2.859 -55.188 -3.398 QT
-56.063 -3.938 -56.516 -4.867 QT
-56.969 -5.797 -56.969 -6.828 QT
cp
-55.891 -6.813 M
-55.891 -5.391 -55.125 -4.57 QT
-54.359 -3.75 -53.203 -3.75 QT
-52.031 -3.75 -51.273 -4.578 QT
-50.516 -5.406 -50.516 -6.938 QT
-50.516 -7.891 -50.836 -8.609 QT
-51.156 -9.328 -51.781 -9.719 QT
-52.406 -10.109 -53.188 -10.109 QT
-54.297 -10.109 -55.094 -9.352 QT
-55.891 -8.594 -55.891 -6.813 QT
cp
-42.742 -5.766 M
-41.696 -5.5 L
-42.024 -4.219 -42.875 -3.539 QT
-43.727 -2.859 -44.961 -2.859 QT
-46.242 -2.859 -47.039 -3.383 QT
-47.836 -3.906 -48.25 -4.891 QT
-48.664 -5.875 -48.664 -7 QT
-48.664 -8.219 -48.196 -9.141 QT
-47.727 -10.063 -46.86 -10.539 QT
-45.992 -11.016 -44.946 -11.016 QT
-43.758 -11.016 -42.953 -10.414 QT
-42.149 -9.813 -41.836 -8.719 QT
-42.867 -8.469 L
-43.133 -9.328 -43.657 -9.719 QT
-44.18 -10.109 -44.961 -10.109 QT
-45.883 -10.109 -46.492 -9.68 QT
-47.102 -9.25 -47.344 -8.516 QT
-47.586 -7.781 -47.586 -7 QT
-47.586 -6 -47.297 -5.25 QT
-47.008 -4.5 -46.391 -4.125 QT
-45.774 -3.75 -45.055 -3.75 QT
-44.18 -3.75 -43.571 -4.258 QT
-42.961 -4.766 -42.742 -5.766 QT
cp
-38.422 -3 M
-41.469 -10.875 L
-40.344 -10.875 L
-38.297 -5.156 L
-38.047 -4.469 -37.875 -3.859 QT
-37.703 -4.516 -37.453 -5.156 QT
-35.328 -10.875 L
-34.266 -10.875 L
-37.344 -3 L
-38.422 -3 L
cp
-28.869 -0.688 M
-29.682 -1.688 -30.229 -3.047 QT
-30.775 -4.406 -30.775 -5.859 QT
-30.775 -7.125 -30.369 -8.297 QT
-29.885 -9.656 -28.869 -11.016 QT
-28.182 -11.016 L
-28.838 -9.891 -29.041 -9.406 QT
-29.369 -8.672 -29.557 -7.859 QT
-29.791 -6.859 -29.791 -5.844 QT
-29.791 -3.266 -28.182 -0.688 QT
-28.869 -0.688 L
cp
-24.805 -3 M
-27.852 -10.875 L
-26.727 -10.875 L
-24.68 -5.156 L
-24.43 -4.469 -24.258 -3.859 QT
-24.086 -4.516 -23.836 -5.156 QT
-21.711 -10.875 L
-20.649 -10.875 L
-23.727 -3 L
-24.805 -3 L
cp
-19.432 -0.688 M
-20.119 -0.688 L
-18.525 -3.266 -18.525 -5.844 QT
-18.525 -6.859 -18.744 -7.844 QT
-18.932 -8.656 -19.26 -9.391 QT
-19.463 -9.875 -20.119 -11.016 QT
-19.432 -11.016 L
-18.416 -9.656 -17.932 -8.297 QT
-17.525 -7.125 -17.525 -5.859 QT
-17.525 -4.406 -18.08 -3.047 QT
-18.635 -1.688 -19.432 -0.688 QT
cp
-7.813 -5.766 M
-6.766 -5.5 L
-7.094 -4.219 -7.946 -3.539 QT
-8.797 -2.859 -10.032 -2.859 QT
-11.313 -2.859 -12.11 -3.383 QT
-12.907 -3.906 -13.321 -4.891 QT
-13.735 -5.875 -13.735 -7 QT
-13.735 -8.219 -13.266 -9.141 QT
-12.797 -10.063 -11.93 -10.539 QT
-11.063 -11.016 -10.016 -11.016 QT
-8.829 -11.016 -8.024 -10.414 QT
-7.219 -9.813 -6.907 -8.719 QT
-7.938 -8.469 L
-8.204 -9.328 -8.727 -9.719 QT
-9.251 -10.109 -10.032 -10.109 QT
-10.954 -10.109 -11.563 -9.68 QT
-12.172 -9.25 -12.415 -8.516 QT
-12.657 -7.781 -12.657 -7 QT
-12.657 -6 -12.368 -5.25 QT
-12.079 -4.5 -11.462 -4.125 QT
-10.844 -3.75 -10.126 -3.75 QT
-9.251 -3.75 -8.641 -4.258 QT
-8.032 -4.766 -7.813 -5.766 QT
cp
-1.961 -4.844 M
-0.961 -4.719 L
-1.196 -3.844 -1.836 -3.359 QT
-2.477 -2.875 -3.461 -2.875 QT
-4.711 -2.875 -5.446 -3.641 QT
-6.18 -4.406 -6.18 -5.797 QT
-6.18 -7.25 -5.438 -8.039 QT
-4.696 -8.828 -3.524 -8.828 QT
-2.367 -8.828 -1.649 -8.055 QT
-0.93 -7.281 -0.93 -5.859 QT
-0.93 -5.781 -0.93 -5.609 QT
-5.18 -5.609 L
-5.133 -4.672 -4.657 -4.172 QT
-4.18 -3.672 -3.461 -3.672 QT
-2.93 -3.672 -2.555 -3.945 QT
-2.18 -4.219 -1.961 -4.844 QT
cp
-5.133 -6.406 M
-1.946 -6.406 L
-2.008 -7.125 -2.305 -7.484 QT
-2.774 -8.031 -3.508 -8.031 QT
-4.18 -8.031 -4.633 -7.586 QT
-5.086 -7.141 -5.133 -6.406 QT
cp
0.043 -3 M
0.043 -10.875 L
1.012 -10.875 L
1.012 -3 L
0.043 -3 L
cp
2.411 -3 M
2.411 -10.875 L
3.38 -10.875 L
3.38 -3 L
2.411 -3 L
cp
7.505 -5.078 M
8.458 -5.203 L
8.63 -4.391 9.028 -4.023 QT
9.426 -3.656 10.005 -3.656 QT
10.692 -3.656 11.161 -4.133 QT
11.63 -4.609 11.63 -5.297 QT
11.63 -5.969 11.192 -6.398 QT
10.755 -6.828 10.083 -6.828 QT
9.817 -6.828 9.411 -6.734 QT
9.505 -7.578 L
9.614 -7.563 9.661 -7.563 QT
10.286 -7.563 10.778 -7.883 QT
11.27 -8.203 11.27 -8.875 QT
11.27 -9.406 10.911 -9.758 QT
10.551 -10.109 9.989 -10.109 QT
9.426 -10.109 9.051 -9.758 QT
8.676 -9.406 8.567 -8.688 QT
7.598 -8.859 L
7.77 -9.844 8.403 -10.375 QT
9.036 -10.906 9.958 -10.906 QT
10.614 -10.906 11.153 -10.633 QT
11.692 -10.359 11.981 -9.875 QT
12.27 -9.391 12.27 -8.859 QT
12.27 -8.344 11.997 -7.93 QT
11.723 -7.516 11.176 -7.266 QT
11.88 -7.109 12.27 -6.602 QT
12.661 -6.094 12.661 -5.328 QT
12.661 -4.297 11.903 -3.578 QT
11.145 -2.859 10.005 -2.859 QT
8.958 -2.859 8.278 -3.477 QT
7.598 -4.094 7.505 -5.078 QT
cp
20.376 -3.703 M
19.829 -3.25 19.337 -3.063 QT
18.845 -2.875 18.267 -2.875 QT
17.329 -2.875 16.821 -3.336 QT
16.314 -3.797 16.314 -4.5 QT
16.314 -4.922 16.509 -5.266 QT
16.704 -5.609 17.009 -5.82 QT
17.314 -6.031 17.704 -6.141 QT
17.986 -6.219 18.564 -6.281 QT
19.736 -6.422 20.282 -6.625 QT
20.298 -6.813 20.298 -6.875 QT
20.298 -7.469 20.017 -7.703 QT
19.657 -8.031 18.923 -8.031 QT
18.236 -8.031 17.915 -7.797 QT
17.595 -7.563 17.439 -6.953 QT
16.486 -7.078 L
16.611 -7.688 16.907 -8.063 QT
17.204 -8.438 17.767 -8.633 QT
18.329 -8.828 19.064 -8.828 QT
19.798 -8.828 20.251 -8.656 QT
20.704 -8.484 20.915 -8.227 QT
21.126 -7.969 21.22 -7.578 QT
21.267 -7.328 21.267 -6.672 QT
21.267 -5.391 L
21.267 -4.047 21.329 -3.688 QT
21.392 -3.328 21.579 -3 QT
20.564 -3 L
20.407 -3.297 20.376 -3.703 QT
cp
20.282 -5.859 M
19.767 -5.641 18.704 -5.5 QT
18.111 -5.406 17.868 -5.305 QT
17.626 -5.203 17.486 -4.992 QT
17.345 -4.781 17.345 -4.531 QT
17.345 -4.141 17.642 -3.883 QT
17.939 -3.625 18.501 -3.625 QT
19.064 -3.625 19.493 -3.875 QT
19.923 -4.125 20.142 -4.547 QT
20.282 -4.875 20.282 -5.516 QT
20.282 -5.859 L
cp
24.693 -3.859 M
24.818 -3.016 L
24.412 -2.922 24.1 -2.922 QT
23.568 -2.922 23.279 -3.094 QT
22.99 -3.266 22.873 -3.531 QT
22.756 -3.797 22.756 -4.672 QT
22.756 -7.953 L
22.037 -7.953 L
22.037 -8.703 L
22.756 -8.703 L
22.756 -10.109 L
23.709 -10.703 L
23.709 -8.703 L
24.693 -8.703 L
24.693 -7.953 L
23.709 -7.953 L
23.709 -4.609 L
23.709 -4.203 23.764 -4.086 QT
23.818 -3.969 23.935 -3.898 QT
24.053 -3.828 24.256 -3.828 QT
24.428 -3.828 24.693 -3.859 QT
cp
33.302 -3.922 M
33.302 -3 L
28.099 -3 L
28.099 -3.344 28.224 -3.672 QT
28.411 -4.203 28.849 -4.719 QT
29.286 -5.234 30.115 -5.906 QT
31.396 -6.969 31.849 -7.578 QT
32.302 -8.188 32.302 -8.734 QT
32.302 -9.313 31.896 -9.711 QT
31.49 -10.109 30.818 -10.109 QT
30.13 -10.109 29.708 -9.688 QT
29.286 -9.266 29.286 -8.531 QT
28.286 -8.625 L
28.396 -9.734 29.06 -10.32 QT
29.724 -10.906 30.849 -10.906 QT
31.974 -10.906 32.638 -10.281 QT
33.302 -9.656 33.302 -8.719 QT
33.302 -8.25 33.107 -7.789 QT
32.911 -7.328 32.466 -6.828 QT
32.021 -6.328 30.974 -5.438 QT
30.099 -4.719 29.857 -4.453 QT
29.615 -4.188 29.443 -3.922 QT
33.302 -3.922 L
cp
34.15 -5.063 M
35.166 -5.156 L
35.275 -4.406 35.689 -4.031 QT
36.104 -3.656 36.682 -3.656 QT
37.385 -3.656 37.869 -4.188 QT
38.354 -4.719 38.354 -5.578 QT
38.354 -6.406 37.885 -6.883 QT
37.416 -7.359 36.666 -7.359 QT
36.197 -7.359 35.822 -7.148 QT
35.447 -6.938 35.229 -6.609 QT
34.322 -6.719 L
35.088 -10.766 L
39.01 -10.766 L
39.01 -9.844 L
35.869 -9.844 L
35.432 -7.734 L
36.15 -8.219 36.932 -8.219 QT
37.963 -8.219 38.666 -7.508 QT
39.369 -6.797 39.369 -5.672 QT
39.369 -4.594 38.744 -3.828 QT
37.994 -2.859 36.682 -2.859 QT
35.604 -2.859 34.924 -3.461 QT
34.244 -4.063 34.15 -5.063 QT
cp
43.459 -10.188 M
43.459 -10.578 43.741 -10.859 QT
44.022 -11.141 44.428 -11.141 QT
44.819 -11.141 45.1 -10.859 QT
45.381 -10.578 45.381 -10.172 QT
45.381 -9.75 45.1 -9.469 QT
44.819 -9.188 44.428 -9.188 QT
44.022 -9.188 43.741 -9.469 QT
43.459 -9.75 43.459 -10.188 QT
cp
43.866 -10.188 M
43.866 -9.922 44.03 -9.75 QT
44.194 -9.578 44.428 -9.578 QT
44.663 -9.578 44.834 -9.75 QT
45.006 -9.922 45.006 -10.172 QT
45.006 -10.406 44.834 -10.578 QT
44.663 -10.75 44.428 -10.75 QT
44.194 -10.75 44.03 -10.586 QT
43.866 -10.422 43.866 -10.188 QT
cp
52.602 -5.766 M
53.649 -5.5 L
53.321 -4.219 52.469 -3.539 QT
51.617 -2.859 50.383 -2.859 QT
49.102 -2.859 48.305 -3.383 QT
47.508 -3.906 47.094 -4.891 QT
46.68 -5.875 46.68 -7 QT
46.68 -8.219 47.149 -9.141 QT
47.617 -10.063 48.485 -10.539 QT
49.352 -11.016 50.399 -11.016 QT
51.586 -11.016 52.391 -10.414 QT
53.196 -9.813 53.508 -8.719 QT
52.477 -8.469 L
52.211 -9.328 51.688 -9.719 QT
51.164 -10.109 50.383 -10.109 QT
49.461 -10.109 48.852 -9.68 QT
48.242 -9.25 48 -8.516 QT
47.758 -7.781 47.758 -7 QT
47.758 -6 48.047 -5.25 QT
48.336 -4.5 48.953 -4.125 QT
49.571 -3.75 50.289 -3.75 QT
51.164 -3.75 51.774 -4.258 QT
52.383 -4.766 52.602 -5.766 QT
cp
f
GR
GS
[0.75 0 0 0.75 0 0] CT
0 0.447 0.741 RC
1 LJ
2.667 LW
N
66 37.6 M
88.32 37.8 L
S
GR
GS
[0.75 0 0 0.75 0 0] CT
0 0.447 0.741 RC
1 setlinecap
1 LJ
2.667 LW
N
88.32 37.8 M
110.64 38 L
S
GR
GS
[0.75 0 0 0.75 0 0] CT
0 0.447 0.741 RC
1 setlinecap
1 LJ
2.667 LW
N
110.64 38 M
132.96 38.2 L
S
GR
GS
[0.75 0 0 0.75 0 0] CT
0 0.447 0.741 RC
1 setlinecap
1 LJ
2.667 LW
N
132.96 38.2 M
155.28 38.4 L
S
GR
GS
[0.75 0 0 0.75 0 0] CT
0 0.447 0.741 RC
1 setlinecap
1 LJ
2.667 LW
N
155.28 38.4 M
177.6 38.4 L
S
GR
GS
[0.75 0 0 0.75 0 0] CT
0 0.447 0.741 RC
1 setlinecap
1 LJ
2.667 LW
N
177.6 38.4 M
199.92 38.8 L
S
GR
GS
[0.75 0 0 0.75 0 0] CT
0 0.447 0.741 RC
1 setlinecap
1 LJ
2.667 LW
N
199.92 38.8 M
222.24 39.2 L
S
GR
GS
[0.75 0 0 0.75 0 0] CT
0 0.447 0.741 RC
1 setlinecap
1 LJ
2.667 LW
N
222.24 39.2 M
244.56 39.8 L
S
GR
GS
[0.75 0 0 0.75 0 0] CT
0 0.447 0.741 RC
1 setlinecap
1 LJ
2.667 LW
N
244.56 39.8 M
266.88 40.2 L
S
GR
GS
[0.75 0 0 0.75 0 0] CT
0 0.447 0.741 RC
1 setlinecap
1 LJ
2.667 LW
N
266.88 40.2 M
289.2 40.6 L
S
GR
GS
[0.75 0 0 0.75 0 0] CT
0 0.447 0.741 RC
1 setlinecap
1 LJ
2.667 LW
N
289.2 40.6 M
311.52 41 L
S
GR
GS
[0.75 0 0 0.75 0 0] CT
0 0.447 0.741 RC
1 LJ
2.667 LW
N
311.52 41 M
333.84 41.4 L
S
GR
GS
[0.75 0 0 0.75 0 0] CT
0.851 0.325 0.098 RC
1 LJ
2.667 LW
N
66 62.6 M
88.32 63.2 L
S
GR
GS
[0.75 0 0 0.75 0 0] CT
0.851 0.325 0.098 RC
1 setlinecap
1 LJ
2.667 LW
N
88.32 63.2 M
110.64 63.4 L
S
GR
GS
[0.75 0 0 0.75 0 0] CT
0.851 0.325 0.098 RC
1 setlinecap
1 LJ
2.667 LW
N
110.64 63.4 M
132.96 63.6 L
S
GR
GS
[0.75 0 0 0.75 0 0] CT
0.851 0.325 0.098 RC
1 setlinecap
1 LJ
2.667 LW
N
132.96 63.6 M
155.28 63.6 L
S
GR
GS
[0.75 0 0 0.75 0 0] CT
0.851 0.325 0.098 RC
1 setlinecap
1 LJ
2.667 LW
N
155.28 63.6 M
177.6 63.8 L
S
GR
GS
[0.75 0 0 0.75 0 0] CT
0.851 0.325 0.098 RC
1 setlinecap
1 LJ
2.667 LW
N
177.6 63.8 M
199.92 64.2 L
S
GR
GS
[0.75 0 0 0.75 0 0] CT
0.851 0.325 0.098 RC
1 setlinecap
1 LJ
2.667 LW
N
199.92 64.2 M
222.24 64.6 L
S
GR
GS
[0.75 0 0 0.75 0 0] CT
0.851 0.325 0.098 RC
1 setlinecap
1 LJ
2.667 LW
N
222.24 64.6 M
244.56 65.2 L
S
GR
GS
[0.75 0 0 0.75 0 0] CT
0.851 0.325 0.098 RC
1 setlinecap
1 LJ
2.667 LW
N
244.56 65.2 M
266.88 65.8 L
S
GR
GS
[0.75 0 0 0.75 0 0] CT
0.851 0.325 0.098 RC
1 setlinecap
1 LJ
2.667 LW
N
266.88 65.8 M
289.2 66.2 L
S
GR
GS
[0.75 0 0 0.75 0 0] CT
0.851 0.325 0.098 RC
1 setlinecap
1 LJ
2.667 LW
N
289.2 66.2 M
311.52 66.6 L
S
GR
GS
[0.75 0 0 0.75 0 0] CT
0.851 0.325 0.098 RC
1 LJ
2.667 LW
N
311.52 66.6 M
333.84 67.2 L
S
GR
GS
[0.75 0 0 0.75 0 0] CT
0.929 0.694 0.125 RC
1 LJ
2.667 LW
N
66 83.2 M
88.32 84.6 L
S
GR
GS
[0.75 0 0 0.75 0 0] CT
0.929 0.694 0.125 RC
1 setlinecap
1 LJ
2.667 LW
N
88.32 84.6 M
110.64 85 L
S
GR
GS
[0.75 0 0 0.75 0 0] CT
0.929 0.694 0.125 RC
1 setlinecap
1 LJ
2.667 LW
N
110.64 85 M
132.96 85.2 L
S
GR
GS
[0.75 0 0 0.75 0 0] CT
0.929 0.694 0.125 RC
1 setlinecap
1 LJ
2.667 LW
N
132.96 85.2 M
155.28 85.2 L
S
GR
GS
[0.75 0 0 0.75 0 0] CT
0.929 0.694 0.125 RC
1 setlinecap
1 LJ
2.667 LW
N
155.28 85.2 M
177.6 85.4 L
S
GR
GS
[0.75 0 0 0.75 0 0] CT
0.929 0.694 0.125 RC
1 setlinecap
1 LJ
2.667 LW
N
177.6 85.4 M
199.92 85.6 L
S
GR
GS
[0.75 0 0 0.75 0 0] CT
0.929 0.694 0.125 RC
1 setlinecap
1 LJ
2.667 LW
N
199.92 85.6 M
222.24 85.8 L
S
GR
GS
[0.75 0 0 0.75 0 0] CT
0.929 0.694 0.125 RC
1 setlinecap
1 LJ
2.667 LW
N
222.24 85.8 M
244.56 86.4 L
S
GR
GS
[0.75 0 0 0.75 0 0] CT
0.929 0.694 0.125 RC
1 setlinecap
1 LJ
2.667 LW
N
244.56 86.4 M
266.88 86.8 L
S
GR
GS
[0.75 0 0 0.75 0 0] CT
0.929 0.694 0.125 RC
1 setlinecap
1 LJ
2.667 LW
N
266.88 86.8 M
289.2 87.2 L
S
GR
GS
[0.75 0 0 0.75 0 0] CT
0.929 0.694 0.125 RC
1 setlinecap
1 LJ
2.667 LW
N
289.2 87.2 M
311.52 87.8 L
S
GR
GS
[0.75 0 0 0.75 0 0] CT
0.929 0.694 0.125 RC
1 LJ
2.667 LW
N
311.52 87.8 M
333.84 88.6 L
S
GR
GS
[0.75 0 0 0.75 0 0] CT
0.494 0.184 0.557 RC
1 LJ
2.667 LW
N
66 101.6 M
88.32 103.4 L
S
GR
GS
[0.75 0 0 0.75 0 0] CT
0.494 0.184 0.557 RC
1 setlinecap
1 LJ
2.667 LW
N
88.32 103.4 M
110.64 104 L
S
GR
GS
[0.75 0 0 0.75 0 0] CT
0.494 0.184 0.557 RC
1 setlinecap
1 LJ
2.667 LW
N
110.64 104 M
132.96 104.4 L
S
GR
GS
[0.75 0 0 0.75 0 0] CT
0.494 0.184 0.557 RC
1 setlinecap
1 LJ
2.667 LW
N
132.96 104.4 M
155.28 104.6 L
S
GR
GS
[0.75 0 0 0.75 0 0] CT
0.494 0.184 0.557 RC
1 setlinecap
1 LJ
2.667 LW
N
155.28 104.6 M
177.6 105.2 L
S
GR
GS
[0.75 0 0 0.75 0 0] CT
0.494 0.184 0.557 RC
1 setlinecap
1 LJ
2.667 LW
N
177.6 105.2 M
199.92 105.8 L
S
GR
GS
[0.75 0 0 0.75 0 0] CT
0.494 0.184 0.557 RC
1 setlinecap
1 LJ
2.667 LW
N
199.92 105.8 M
222.24 106.6 L
S
GR
GS
[0.75 0 0 0.75 0 0] CT
0.494 0.184 0.557 RC
1 setlinecap
1 LJ
2.667 LW
N
222.24 106.6 M
244.56 107.4 L
S
GR
GS
[0.75 0 0 0.75 0 0] CT
0.494 0.184 0.557 RC
1 setlinecap
1 LJ
2.667 LW
N
244.56 107.4 M
266.88 108 L
S
GR
GS
[0.75 0 0 0.75 0 0] CT
0.494 0.184 0.557 RC
1 setlinecap
1 LJ
2.667 LW
N
266.88 108 M
289.2 108.8 L
S
GR
GS
[0.75 0 0 0.75 0 0] CT
0.494 0.184 0.557 RC
1 setlinecap
1 LJ
2.667 LW
N
289.2 108.8 M
311.52 109.4 L
S
GR
GS
[0.75 0 0 0.75 0 0] CT
0.494 0.184 0.557 RC
1 LJ
2.667 LW
N
311.52 109.4 M
333.84 110.2 L
S
GR
GS
[0.75 0 0 0.75 0 0] CT
0.467 0.675 0.188 RC
1 LJ
2.667 LW
N
66 120.8 M
88.32 123.4 L
S
GR
GS
[0.75 0 0 0.75 0 0] CT
0.467 0.675 0.188 RC
1 setlinecap
1 LJ
2.667 LW
N
88.32 123.4 M
110.64 124.4 L
S
GR
GS
[0.75 0 0 0.75 0 0] CT
0.467 0.675 0.188 RC
1 setlinecap
1 LJ
2.667 LW
N
110.64 124.4 M
132.96 124.8 L
S
GR
GS
[0.75 0 0 0.75 0 0] CT
0.467 0.675 0.188 RC
1 setlinecap
1 LJ
2.667 LW
N
132.96 124.8 M
155.28 125 L
S
GR
GS
[0.75 0 0 0.75 0 0] CT
0.467 0.675 0.188 RC
1 setlinecap
1 LJ
2.667 LW
N
155.28 125 M
177.6 125.4 L
S
GR
GS
[0.75 0 0 0.75 0 0] CT
0.467 0.675 0.188 RC
1 setlinecap
1 LJ
2.667 LW
N
177.6 125.4 M
199.92 125.6 L
S
GR
GS
[0.75 0 0 0.75 0 0] CT
0.467 0.675 0.188 RC
1 setlinecap
1 LJ
2.667 LW
N
199.92 125.6 M
222.24 125.8 L
S
GR
GS
[0.75 0 0 0.75 0 0] CT
0.467 0.675 0.188 RC
1 setlinecap
1 LJ
2.667 LW
N
222.24 125.8 M
244.56 126.2 L
S
GR
GS
[0.75 0 0 0.75 0 0] CT
0.467 0.675 0.188 RC
1 setlinecap
1 LJ
2.667 LW
N
244.56 126.2 M
266.88 126.4 L
S
GR
GS
[0.75 0 0 0.75 0 0] CT
0.467 0.675 0.188 RC
1 setlinecap
1 LJ
2.667 LW
N
266.88 126.4 M
289.2 126.8 L
S
GR
GS
[0.75 0 0 0.75 0 0] CT
0.467 0.675 0.188 RC
1 setlinecap
1 LJ
2.667 LW
N
289.2 126.8 M
311.52 127 L
S
GR
GS
[0.75 0 0 0.75 0 0] CT
0.467 0.675 0.188 RC
1 LJ
2.667 LW
N
311.52 127 M
333.84 127.6 L
S
GR
GS
[0.75 0 0 0.75 0 0] CT
0.302 0.745 0.933 RC
1 LJ
2.667 LW
N
66 133.8 M
88.32 135.6 L
S
GR
GS
[0.75 0 0 0.75 0 0] CT
0.302 0.745 0.933 RC
1 setlinecap
1 LJ
2.667 LW
N
88.32 135.6 M
110.64 136.4 L
S
GR
GS
[0.75 0 0 0.75 0 0] CT
0.302 0.745 0.933 RC
1 setlinecap
1 LJ
2.667 LW
N
110.64 136.4 M
132.96 136.6 L
S
GR
GS
[0.75 0 0 0.75 0 0] CT
0.302 0.745 0.933 RC
1 setlinecap
1 LJ
2.667 LW
N
132.96 136.6 M
155.28 136.8 L
S
GR
GS
[0.75 0 0 0.75 0 0] CT
0.302 0.745 0.933 RC
1 setlinecap
1 LJ
2.667 LW
N
155.28 136.8 M
177.6 137 L
S
GR
GS
[0.75 0 0 0.75 0 0] CT
0.302 0.745 0.933 RC
1 setlinecap
1 LJ
2.667 LW
N
177.6 137 M
199.92 137 L
S
GR
GS
[0.75 0 0 0.75 0 0] CT
0.302 0.745 0.933 RC
1 setlinecap
1 LJ
2.667 LW
N
199.92 137 M
222.24 137.2 L
S
GR
GS
[0.75 0 0 0.75 0 0] CT
0.302 0.745 0.933 RC
1 setlinecap
1 LJ
2.667 LW
N
222.24 137.2 M
244.56 137.4 L
S
GR
GS
[0.75 0 0 0.75 0 0] CT
0.302 0.745 0.933 RC
1 setlinecap
1 LJ
2.667 LW
N
244.56 137.4 M
266.88 137.6 L
S
GR
GS
[0.75 0 0 0.75 0 0] CT
0.302 0.745 0.933 RC
1 setlinecap
1 LJ
2.667 LW
N
266.88 137.6 M
289.2 137.8 L
S
GR
GS
[0.75 0 0 0.75 0 0] CT
0.302 0.745 0.933 RC
1 setlinecap
1 LJ
2.667 LW
N
289.2 137.8 M
311.52 138 L
S
GR
GS
[0.75 0 0 0.75 0 0] CT
0.302 0.745 0.933 RC
1 LJ
2.667 LW
N
311.52 138 M
333.84 138.2 L
S
GR
GS
[0.75 0 0 0.75 0 0] CT
0.635 0.078 0.184 RC
1 LJ
2.667 LW
N
66 141.6 M
88.32 143 L
S
GR
GS
[0.75 0 0 0.75 0 0] CT
0.635 0.078 0.184 RC
1 setlinecap
1 LJ
2.667 LW
N
88.32 143 M
110.64 143.6 L
S
GR
GS
[0.75 0 0 0.75 0 0] CT
0.635 0.078 0.184 RC
1 setlinecap
1 LJ
2.667 LW
N
110.64 143.6 M
132.96 143.8 L
S
GR
GS
[0.75 0 0 0.75 0 0] CT
0.635 0.078 0.184 RC
1 setlinecap
1 LJ
2.667 LW
N
132.96 143.8 M
155.28 144 L
S
GR
GS
[0.75 0 0 0.75 0 0] CT
0.635 0.078 0.184 RC
1 setlinecap
1 LJ
2.667 LW
N
155.28 144 M
177.6 144.2 L
S
GR
GS
[0.75 0 0 0.75 0 0] CT
0.635 0.078 0.184 RC
1 setlinecap
1 LJ
2.667 LW
N
177.6 144.2 M
199.92 144.4 L
S
GR
GS
[0.75 0 0 0.75 0 0] CT
0.635 0.078 0.184 RC
1 setlinecap
1 LJ
2.667 LW
N
199.92 144.4 M
222.24 144.4 L
S
GR
GS
[0.75 0 0 0.75 0 0] CT
0.635 0.078 0.184 RC
1 setlinecap
1 LJ
2.667 LW
N
222.24 144.4 M
244.56 144.6 L
S
GR
GS
[0.75 0 0 0.75 0 0] CT
0.635 0.078 0.184 RC
1 setlinecap
1 LJ
2.667 LW
N
244.56 144.6 M
266.88 144.8 L
S
GR
GS
[0.75 0 0 0.75 0 0] CT
0.635 0.078 0.184 RC
1 setlinecap
1 LJ
2.667 LW
N
266.88 144.8 M
289.2 145 L
S
GR
GS
[0.75 0 0 0.75 0 0] CT
0.635 0.078 0.184 RC
1 setlinecap
1 LJ
2.667 LW
N
289.2 145 M
311.52 145 L
S
GR
GS
[0.75 0 0 0.75 0 0] CT
0.635 0.078 0.184 RC
1 LJ
2.667 LW
N
311.52 145 M
333.84 145.4 L
S
GR
GS
[0.75 0 0 0.75 0 0] CT
0 0.447 0.741 RC
1 LJ
2.667 LW
N
66 147.6 M
88.32 149 L
S
GR
GS
[0.75 0 0 0.75 0 0] CT
0 0.447 0.741 RC
1 setlinecap
1 LJ
2.667 LW
N
88.32 149 M
110.64 149.8 L
S
GR
GS
[0.75 0 0 0.75 0 0] CT
0 0.447 0.741 RC
1 setlinecap
1 LJ
2.667 LW
N
110.64 149.8 M
132.96 150.2 L
S
GR
GS
[0.75 0 0 0.75 0 0] CT
0 0.447 0.741 RC
1 setlinecap
1 LJ
2.667 LW
N
132.96 150.2 M
155.28 150.8 L
S
GR
GS
[0.75 0 0 0.75 0 0] CT
0 0.447 0.741 RC
1 setlinecap
1 LJ
2.667 LW
N
155.28 150.8 M
177.6 151.4 L
S
GR
GS
[0.75 0 0 0.75 0 0] CT
0 0.447 0.741 RC
1 setlinecap
1 LJ
2.667 LW
N
177.6 151.4 M
199.92 151.8 L
S
GR
GS
[0.75 0 0 0.75 0 0] CT
0 0.447 0.741 RC
1 setlinecap
1 LJ
2.667 LW
N
199.92 151.8 M
222.24 152.2 L
S
GR
GS
[0.75 0 0 0.75 0 0] CT
0 0.447 0.741 RC
1 setlinecap
1 LJ
2.667 LW
N
222.24 152.2 M
244.56 152.6 L
S
GR
GS
[0.75 0 0 0.75 0 0] CT
0 0.447 0.741 RC
1 setlinecap
1 LJ
2.667 LW
N
244.56 152.6 M
266.88 152.8 L
S
GR
GS
[0.75 0 0 0.75 0 0] CT
0 0.447 0.741 RC
1 setlinecap
1 LJ
2.667 LW
N
266.88 152.8 M
289.2 153.2 L
S
GR
GS
[0.75 0 0 0.75 0 0] CT
0 0.447 0.741 RC
1 setlinecap
1 LJ
2.667 LW
N
289.2 153.2 M
311.52 153.4 L
S
GR
GS
[0.75 0 0 0.75 0 0] CT
0 0.447 0.741 RC
1 LJ
2.667 LW
N
311.52 153.4 M
333.84 153.8 L
S
GR
GS
[0.75 0 0 0.75 0 0] CT
0.851 0.325 0.098 RC
1 LJ
2.667 LW
N
66 157.2 M
88.32 160 L
S
GR
GS
[0.75 0 0 0.75 0 0] CT
0.851 0.325 0.098 RC
1 setlinecap
1 LJ
2.667 LW
N
88.32 160 M
110.64 161.4 L
S
GR
GS
[0.75 0 0 0.75 0 0] CT
0.851 0.325 0.098 RC
1 setlinecap
1 LJ
2.667 LW
N
110.64 161.4 M
132.96 162 L
S
GR
GS
[0.75 0 0 0.75 0 0] CT
0.851 0.325 0.098 RC
1 setlinecap
1 LJ
2.667 LW
N
132.96 162 M
155.28 162.6 L
S
GR
GS
[0.75 0 0 0.75 0 0] CT
0.851 0.325 0.098 RC
1 setlinecap
1 LJ
2.667 LW
N
155.28 162.6 M
177.6 163 L
S
GR
GS
[0.75 0 0 0.75 0 0] CT
0.851 0.325 0.098 RC
1 setlinecap
1 LJ
2.667 LW
N
177.6 163 M
199.92 163.2 L
S
GR
GS
[0.75 0 0 0.75 0 0] CT
0.851 0.325 0.098 RC
1 setlinecap
1 LJ
2.667 LW
N
199.92 163.2 M
222.24 163.4 L
S
GR
GS
[0.75 0 0 0.75 0 0] CT
0.851 0.325 0.098 RC
1 setlinecap
1 LJ
2.667 LW
N
222.24 163.4 M
244.56 163.8 L
S
GR
GS
[0.75 0 0 0.75 0 0] CT
0.851 0.325 0.098 RC
1 setlinecap
1 LJ
2.667 LW
N
244.56 163.8 M
266.88 163.8 L
S
GR
GS
[0.75 0 0 0.75 0 0] CT
0.851 0.325 0.098 RC
1 setlinecap
1 LJ
2.667 LW
N
266.88 163.8 M
289.2 164 L
S
GR
GS
[0.75 0 0 0.75 0 0] CT
0.851 0.325 0.098 RC
1 setlinecap
1 LJ
2.667 LW
N
289.2 164 M
311.52 164.2 L
S
GR
GS
[0.75 0 0 0.75 0 0] CT
0.851 0.325 0.098 RC
1 LJ
2.667 LW
N
311.52 164.2 M
333.84 164.4 L
S
GR
GS
[0.75 0 0 0.75 0 0] CT
0.929 0.694 0.125 RC
1 LJ
2.667 LW
N
66 169 M
88.32 172.6 L
S
GR
GS
[0.75 0 0 0.75 0 0] CT
0.929 0.694 0.125 RC
1 setlinecap
1 LJ
2.667 LW
N
88.32 172.6 M
110.64 174.4 L
S
GR
GS
[0.75 0 0 0.75 0 0] CT
0.929 0.694 0.125 RC
1 setlinecap
1 LJ
2.667 LW
N
110.64 174.4 M
132.96 175 L
S
GR
GS
[0.75 0 0 0.75 0 0] CT
0.929 0.694 0.125 RC
1 setlinecap
1 LJ
2.667 LW
N
132.96 175 M
155.28 175.4 L
S
GR
GS
[0.75 0 0 0.75 0 0] CT
0.929 0.694 0.125 RC
1 setlinecap
1 LJ
2.667 LW
N
155.28 175.4 M
177.6 176 L
S
GR
GS
[0.75 0 0 0.75 0 0] CT
0.929 0.694 0.125 RC
1 setlinecap
1 LJ
2.667 LW
N
177.6 176 M
199.92 176.2 L
S
GR
GS
[0.75 0 0 0.75 0 0] CT
0.929 0.694 0.125 RC
1 setlinecap
1 LJ
2.667 LW
N
199.92 176.2 M
222.24 176.2 L
S
GR
GS
[0.75 0 0 0.75 0 0] CT
0.929 0.694 0.125 RC
1 setlinecap
1 LJ
2.667 LW
N
222.24 176.2 M
244.56 176.6 L
S
GR
GS
[0.75 0 0 0.75 0 0] CT
0.929 0.694 0.125 RC
1 setlinecap
1 LJ
2.667 LW
N
244.56 176.6 M
266.88 176.4 L
S
GR
GS
[0.75 0 0 0.75 0 0] CT
0.929 0.694 0.125 RC
1 setlinecap
1 LJ
2.667 LW
N
266.88 176.4 M
289.2 176.6 L
S
GR
GS
[0.75 0 0 0.75 0 0] CT
0.929 0.694 0.125 RC
1 setlinecap
1 LJ
2.667 LW
N
289.2 176.6 M
311.52 176.4 L
S
GR
GS
[0.75 0 0 0.75 0 0] CT
0.929 0.694 0.125 RC
1 LJ
2.667 LW
N
311.52 176.4 M
333.84 176.6 L
S
GR
GS
[0.75 0 0 0.75 0 0] CT
0.494 0.184 0.557 RC
1 LJ
2.667 LW
N
66 184.2 M
88.32 192.6 L
S
GR
GS
[0.75 0 0 0.75 0 0] CT
0.494 0.184 0.557 RC
1 setlinecap
1 LJ
2.667 LW
N
88.32 192.6 M
110.64 199.8 L
S
GR
GS
[0.75 0 0 0.75 0 0] CT
0.494 0.184 0.557 RC
1 setlinecap
1 LJ
2.667 LW
N
110.64 199.8 M
132.96 204.8 L
S
GR
GS
[0.75 0 0 0.75 0 0] CT
0.494 0.184 0.557 RC
1 setlinecap
1 LJ
2.667 LW
N
132.96 204.8 M
155.28 208.8 L
S
GR
GS
[0.75 0 0 0.75 0 0] CT
0.494 0.184 0.557 RC
1 setlinecap
1 LJ
2.667 LW
N
155.28 208.8 M
177.6 212.4 L
S
GR
GS
[0.75 0 0 0.75 0 0] CT
0.494 0.184 0.557 RC
1 setlinecap
1 LJ
2.667 LW
N
177.6 212.4 M
199.92 213.8 L
S
GR
GS
[0.75 0 0 0.75 0 0] CT
0.494 0.184 0.557 RC
1 setlinecap
1 LJ
2.667 LW
N
199.92 213.8 M
222.24 214.6 L
S
GR
GS
[0.75 0 0 0.75 0 0] CT
0.494 0.184 0.557 RC
1 setlinecap
1 LJ
2.667 LW
N
222.24 214.6 M
244.56 220 L
S
GR
GS
[0.75 0 0 0.75 0 0] CT
0.494 0.184 0.557 RC
1 setlinecap
1 LJ
2.667 LW
N
244.56 220 M
266.88 213.6 L
S
GR
GS
[0.75 0 0 0.75 0 0] CT
0.494 0.184 0.557 RC
1 setlinecap
1 LJ
2.667 LW
N
266.88 213.6 M
289.2 213.2 L
S
GR
GS
[0.75 0 0 0.75 0 0] CT
0.494 0.184 0.557 RC
1 setlinecap
1 LJ
2.667 LW
N
289.2 213.2 M
311.52 212 L
S
GR
GS
[0.75 0 0 0.75 0 0] CT
0.494 0.184 0.557 RC
1 LJ
2.667 LW
N
311.52 212 M
333.84 207.4 L
S
GR
GS
[0.75 0 0 0.75 0 0] CT
1 GC
N
371 221 M
371 47 L
464 47 L
464 221 L
cp
f
GR
GS
[0.75 0 0 0.75 306 42.375] CT
/Helvetica 10.667 F
GS
[1 0 0 1 0 0] CT
0 4.5 moveto 
1 -1 scale
(100%SOC) t 
GR
GR
GS
[0.75 0 0 0.75 0 0] CT
0 0.447 0.741 RC
1 LJ
2.667 LW
N
375 56.5 M
405 56.5 L
S
GR
GS
[0.75 0 0 0.75 306 54.00001] CT
/Helvetica 10.667 F
GS
[1 0 0 1 0 0] CT
0 4.5 moveto 
1 -1 scale
(90%SOC) t 
GR
GR
GS
[0.75 0 0 0.75 0 0] CT
0.851 0.325 0.098 RC
1 LJ
2.667 LW
N
375 72 M
405 72 L
S
GR
GS
[0.75 0 0 0.75 306 65.625] CT
/Helvetica 10.667 F
GS
[1 0 0 1 0 0] CT
0 4.5 moveto 
1 -1 scale
(80%SOC) t 
GR
GR
GS
[0.75 0 0 0.75 0 0] CT
0.929 0.694 0.125 RC
1 LJ
2.667 LW
N
375 87.5 M
405 87.5 L
S
GR
GS
[0.75 0 0 0.75 306 77.25] CT
/Helvetica 10.667 F
GS
[1 0 0 1 0 0] CT
0 4.5 moveto 
1 -1 scale
(70%SOC) t 
GR
GR
GS
[0.75 0 0 0.75 0 0] CT
0.494 0.184 0.557 RC
1 LJ
2.667 LW
N
375 103 M
405 103 L
S
GR
GS
[0.75 0 0 0.75 306 88.875] CT
/Helvetica 10.667 F
GS
[1 0 0 1 0 0] CT
0 4.5 moveto 
1 -1 scale
(60%SOC) t 
GR
GR
GS
[0.75 0 0 0.75 0 0] CT
0.467 0.675 0.188 RC
1 LJ
2.667 LW
N
375 118.5 M
405 118.5 L
S
GR
GS
[0.75 0 0 0.75 306 100.5] CT
/Helvetica 10.667 F
GS
[1 0 0 1 0 0] CT
0 4.5 moveto 
1 -1 scale
(50%SOC) t 
GR
GR
GS
[0.75 0 0 0.75 0 0] CT
0.302 0.745 0.933 RC
1 LJ
2.667 LW
N
375 134 M
405 134 L
S
GR
GS
[0.75 0 0 0.75 306 112.125] CT
/Helvetica 10.667 F
GS
[1 0 0 1 0 0] CT
0 4.5 moveto 
1 -1 scale
(40%SOC) t 
GR
GR
GS
[0.75 0 0 0.75 0 0] CT
0.635 0.078 0.184 RC
1 LJ
2.667 LW
N
375 149.5 M
405 149.5 L
S
GR
GS
[0.75 0 0 0.75 306 123.75] CT
/Helvetica 10.667 F
GS
[1 0 0 1 0 0] CT
0 4.5 moveto 
1 -1 scale
(30%SOC) t 
GR
GR
GS
[0.75 0 0 0.75 0 0] CT
0 0.447 0.741 RC
1 LJ
2.667 LW
N
375 165 M
405 165 L
S
GR
GS
[0.75 0 0 0.75 306 135.375] CT
/Helvetica 10.667 F
GS
[1 0 0 1 0 0] CT
0 4.5 moveto 
1 -1 scale
(20%SOC) t 
GR
GR
GS
[0.75 0 0 0.75 0 0] CT
0.851 0.325 0.098 RC
1 LJ
2.667 LW
N
375 180.5 M
405 180.5 L
S
GR
GS
[0.75 0 0 0.75 306 147] CT
/Helvetica 10.667 F
GS
[1 0 0 1 0 0] CT
0 4.5 moveto 
1 -1 scale
(10%SOC) t 
GR
GR
GS
[0.75 0 0 0.75 0 0] CT
0.929 0.694 0.125 RC
1 LJ
2.667 LW
N
375 196 M
405 196 L
S
GR
GS
[0.75 0 0 0.75 306 158.625] CT
/Helvetica 10.667 F
GS
[1 0 0 1 0 0] CT
0 4.5 moveto 
1 -1 scale
(0%SOC) t 
GR
GR
GS
[0.75 0 0 0.75 0 0] CT
0.494 0.184 0.557 RC
1 LJ
2.667 LW
N
375 211.5 M
405 211.5 L
S
GR
GS
[0.75 0 0 0.75 0 0] CT
0.149 GC
10.0 ML
0.667 LW
N
371 221 M
371 47 L
464 47 L
464 221 L
cp
S
GR
%%Trailer
%%Pages: 1
%%EOF
