\relax 
\AC@reset@newl@bel
\providecommand \oddpage@label [2]{}
\newacro{BMS}[BMS]{Battery Management System}
\@writefile{toc}{\contentsline {section}{\numberline {I}Introduction}{1}}
\newlabel{sec:introduction}{{I}{1}}
\@writefile{toc}{\contentsline {section}{\numberline {II}Experimental and analysis}{1}}
\newlabel{sec:SectionII}{{II}{1}}
\@writefile{lof}{\contentsline {figure}{\numberline {1}{\ignorespaces Comparison of normalised capacity between three similar cells during cycle life investigation aged at 25 $^{\circ }$C \relax }}{1}}
\providecommand*\caption@xref[2]{\@setref\relax\@undefined{#1}}
\newlabel{cycling25degrees}{{1}{1}}
\@writefile{lof}{\contentsline {figure}{\numberline {2}{\ignorespaces Comparison of normalised capacity between three similar cells during cycle life investigation aged at 40 $^{\circ }$C\relax }}{1}}
\newlabel{cycling40degrees}{{2}{1}}
\@writefile{lof}{\contentsline {figure}{\numberline {3}{\ignorespaces Comparison of normalised capacity between three similar cells during cycle life investigation of cell 3 aged at 25 $^{\circ }$C \relax }}{1}}
\newlabel{cell3OCV}{{3}{1}}
\@writefile{toc}{\contentsline {section}{\numberline {III}Pack investigation}{1}}
\newlabel{sec:SectionIII}{{III}{1}}
\bibstyle{ieeetr}
\bibdata{library}
\@writefile{lof}{\contentsline {figure}{\numberline {4}{\ignorespaces Comparison of normalised capacity between three similar cells during cycle life investigation of cell 5 aged at 40 $^{\circ }$C\relax }}{2}}
\newlabel{cell5OCV}{{4}{2}}
\@writefile{lof}{\contentsline {figure}{\numberline {5}{\ignorespaces Current profile of the battery pack cycled at 60 A \relax }}{2}}
\newlabel{PackCurrent}{{5}{2}}
\@writefile{lof}{\contentsline {figure}{\numberline {6}{\ignorespaces Battery pack voltage response to the current profile shown in figure 5\hbox {} vs the voltage simulated for the battery pack model\relax }}{2}}
\newlabel{PackVoltage}{{6}{2}}
\@writefile{lof}{\contentsline {figure}{\numberline {7}{\ignorespaces Weakest cell voltage vs strongest cell voltage in the battery pack\relax }}{2}}
\newlabel{Packvoltageminmax}{{7}{2}}
\@writefile{lof}{\contentsline {figure}{\numberline {8}{\ignorespaces Weakest cell SOC vs strongest cell SOC in the battery pack.\relax }}{2}}
\newlabel{SOC}{{8}{2}}
\@writefile{toc}{\contentsline {section}{\numberline {IV}Section IV}{2}}
\newlabel{sec:sectionIV}{{IV}{2}}
\@writefile{toc}{\contentsline {section}{\numberline {V}Section V}{2}}
\newlabel{sec:sectionV}{{V}{2}}
\@writefile{toc}{\contentsline {section}{\numberline {VI}Section VI}{2}}
\newlabel{sec:sectionVI}{{VI}{2}}
\@writefile{toc}{\contentsline {section}{\numberline {VII}Conclusion}{2}}
\newlabel{sec:conclusion}{{VII}{2}}
